(module 803062 (layer F.Cu) (tedit 5BE1DB29)
  (fp_text reference REF** (at 0.16 15.73) (layer F.SilkS)
    (effects (font (size 1 1) (thickness 0.15)))
  )
  (fp_text value 803062 (at -0.03 -12.85) (layer F.Fab)
    (effects (font (size 1 1) (thickness 0.15)))
  )
  (fp_line (start -31 -15) (end 31 -15) (layer F.SilkS) (width 0.15))
  (fp_line (start 31 -15) (end 31 15) (layer F.SilkS) (width 0.15))
  (fp_line (start -31 15) (end -31 -15) (layer F.SilkS) (width 0.15))
  (fp_line (start -31 15) (end 31 15) (layer F.SilkS) (width 0.15))
)
