(module Varistor:RV_Disc_D7mm_W3.4mm_P5mm (layer F.Cu) (tedit 5A0F68DF)
  (descr "Varistor, diameter 7mm, width 3.4mm, pitch 5mm")
  (tags "varistor SIOV")
  (fp_text reference RV1 (at 2.5654 1.0414) (layer F.SilkS)
    (effects (font (size 1 1) (thickness 0.15)))
  )
  (fp_text value 07D391K (at 2.5 -2.05) (layer F.Fab)
    (effects (font (size 1 1) (thickness 0.15)))
  )
  (fp_line (start -1 -1.05) (end -1 2.35) (layer F.Fab) (width 0.1))
  (fp_line (start 6 -1.05) (end 6 2.35) (layer F.Fab) (width 0.1))
  (fp_line (start -1 -1.05) (end 6 -1.05) (layer F.Fab) (width 0.1))
  (fp_line (start -1 2.35) (end 6 2.35) (layer F.Fab) (width 0.1))
  (fp_line (start -1 -1.05) (end -1 2.35) (layer F.SilkS) (width 0.15))
  (fp_line (start 6 -1.05) (end 6 2.35) (layer F.SilkS) (width 0.15))
  (fp_line (start -1 -1.05) (end 6 -1.05) (layer F.SilkS) (width 0.15))
  (fp_line (start -1 2.35) (end 6 2.35) (layer F.SilkS) (width 0.15))
  (fp_line (start -1.25 -1.3) (end -1.25 2.6) (layer F.CrtYd) (width 0.05))
  (fp_line (start 6.25 -1.3) (end 6.25 2.6) (layer F.CrtYd) (width 0.05))
  (fp_line (start -1.25 -1.3) (end 6.25 -1.3) (layer F.CrtYd) (width 0.05))
  (fp_line (start -1.25 2.6) (end 6.25 2.6) (layer F.CrtYd) (width 0.05))
  (fp_text user %R (at 2.5 0.65) (layer F.Fab)
    (effects (font (size 1 1) (thickness 0.15)))
  )
  (pad 2 thru_hole circle (at 5 1.3) (size 1.6 1.6) (drill 0.6) (layers *.Cu *.Mask))
  (pad 1 thru_hole circle (at 0 0) (size 1.6 1.6) (drill 0.6) (layers *.Cu *.Mask))
  (model ${KISYS3DMOD}/Varistor.3dshapes/RV_Disc_D7mm_W3.4mm_P5mm.wrl
    (at (xyz 0 0 0))
    (scale (xyz 1 1 1))
    (rotate (xyz 0 0 0))
  )
)
