EESchema Schematic File Version 4
EELAYER 30 0
EELAYER END
$Descr User 5827 8268
encoding utf-8
Sheet 1 1
Title ""
Date ""
Rev ""
Comp ""
Comment1 ""
Comment2 ""
Comment3 ""
Comment4 ""
$EndDescr
$Comp
L Symbols:ACS725KMATR-30AU-T U1
U 1 1 5F6541E2
P 1450 1700
F 0 "U1" H 1450 2125 50  0000 C CNN
F 1 "ACS725KMATR-30AU-T" H 1450 2151 50  0001 C CNN
F 2 "Package_SO:SOIC-16W_7.5x10.3mm_P1.27mm" H 750 2225 50  0001 L CIN
F 3 "http://www.allegromicro.com/~/Media/Files/Datasheets/ACS711-Datasheet.ashx" H 1450 1700 50  0001 C CNN
	1    1450 1700
	1    0    0    -1  
$EndComp
Wire Wire Line
	1050 1625 1025 1625
Wire Wire Line
	1025 1625 1025 1550
Wire Wire Line
	1025 1400 1050 1400
Wire Wire Line
	1050 1475 1025 1475
Connection ~ 1025 1475
Wire Wire Line
	1025 1475 1025 1400
Wire Wire Line
	1050 1550 1025 1550
Connection ~ 1025 1550
Wire Wire Line
	1025 1550 1025 1475
Wire Wire Line
	1050 1700 1025 1700
Wire Wire Line
	1025 1700 1025 1775
Wire Wire Line
	1025 1925 1050 1925
Wire Wire Line
	1050 1850 1025 1850
Connection ~ 1025 1850
Wire Wire Line
	1025 1850 1025 1925
Wire Wire Line
	1050 1775 1025 1775
Connection ~ 1025 1775
Wire Wire Line
	1025 1775 1025 1850
$Comp
L power:GND #PWR0101
U 1 1 5F6559CE
P 1875 2025
F 0 "#PWR0101" H 1875 1775 50  0001 C CNN
F 1 "GND" H 2025 1975 50  0000 C CNN
F 2 "" H 1875 2025 50  0001 C CNN
F 3 "" H 1875 2025 50  0001 C CNN
	1    1875 2025
	1    0    0    -1  
$EndComp
$Comp
L Device:C_Small C1
U 1 1 5F656349
P 2025 1825
F 0 "C1" H 2025 1900 50  0000 L CNN
F 1 "10nF" H 2117 1780 50  0001 L CNN
F 2 "Capacitor_SMD:C_0603_1608Metric" H 2025 1825 50  0001 C CNN
F 3 "~" H 2025 1825 50  0001 C CNN
	1    2025 1825
	1    0    0    -1  
$EndComp
$Comp
L Device:C_Small C2
U 1 1 5F6569F0
P 2175 1825
F 0 "C2" H 2175 1900 50  0000 L CNN
F 1 "100nF" H 2267 1780 50  0001 L CNN
F 2 "Capacitor_SMD:C_0603_1608Metric" H 2175 1825 50  0001 C CNN
F 3 "~" H 2175 1825 50  0001 C CNN
	1    2175 1825
	1    0    0    -1  
$EndComp
Wire Wire Line
	1850 1700 2025 1700
Wire Wire Line
	2025 1700 2025 1725
Wire Wire Line
	1850 1625 2175 1625
Wire Wire Line
	2175 1625 2175 1725
Wire Wire Line
	1850 1775 1875 1775
Wire Wire Line
	1875 1775 1875 1850
Wire Wire Line
	1875 1925 1850 1925
Wire Wire Line
	1850 1850 1875 1850
Connection ~ 1875 1850
Wire Wire Line
	1875 1850 1875 1925
Wire Wire Line
	1875 2025 1875 2000
Connection ~ 1875 1925
Wire Wire Line
	2025 1925 2025 2000
Wire Wire Line
	2025 2000 1875 2000
Connection ~ 1875 2000
Wire Wire Line
	1875 2000 1875 1925
Wire Wire Line
	2175 1925 2175 2000
Wire Wire Line
	2175 2000 2025 2000
Connection ~ 2025 2000
Text GLabel 775  1700 0    50   Input ~ 0
I_1
Text GLabel 775  1400 0    50   Output ~ 0
O_1
Wire Wire Line
	775  1400 1025 1400
Connection ~ 1025 1400
Wire Wire Line
	775  1700 1025 1700
Connection ~ 1025 1700
$Comp
L Symbols:ACS725KMATR-30AU-T U2
U 1 1 5F6C352A
P 1450 2500
F 0 "U2" H 1450 2925 50  0000 C CNN
F 1 "ACS725KMATR-30AU-T" H 1450 2951 50  0001 C CNN
F 2 "Package_SO:SOIC-16W_7.5x10.3mm_P1.27mm" H 750 3025 50  0001 L CIN
F 3 "http://www.allegromicro.com/~/Media/Files/Datasheets/ACS711-Datasheet.ashx" H 1450 2500 50  0001 C CNN
	1    1450 2500
	1    0    0    -1  
$EndComp
Wire Wire Line
	1050 2425 1025 2425
Wire Wire Line
	1025 2425 1025 2350
Wire Wire Line
	1025 2200 1050 2200
Wire Wire Line
	1050 2275 1025 2275
Connection ~ 1025 2275
Wire Wire Line
	1025 2275 1025 2200
Wire Wire Line
	1050 2350 1025 2350
Connection ~ 1025 2350
Wire Wire Line
	1025 2350 1025 2275
Wire Wire Line
	1050 2500 1025 2500
Wire Wire Line
	1025 2500 1025 2575
Wire Wire Line
	1025 2725 1050 2725
Wire Wire Line
	1050 2650 1025 2650
Connection ~ 1025 2650
Wire Wire Line
	1025 2650 1025 2725
Wire Wire Line
	1050 2575 1025 2575
Connection ~ 1025 2575
Wire Wire Line
	1025 2575 1025 2650
$Comp
L power:GND #PWR0102
U 1 1 5F6C3542
P 1875 2825
F 0 "#PWR0102" H 1875 2575 50  0001 C CNN
F 1 "GND" H 2025 2775 50  0000 C CNN
F 2 "" H 1875 2825 50  0001 C CNN
F 3 "" H 1875 2825 50  0001 C CNN
	1    1875 2825
	1    0    0    -1  
$EndComp
$Comp
L Device:C_Small C3
U 1 1 5F6C3548
P 2025 2625
F 0 "C3" H 2025 2700 50  0000 L CNN
F 1 "10nF" H 2117 2580 50  0001 L CNN
F 2 "Capacitor_SMD:C_0603_1608Metric" H 2025 2625 50  0001 C CNN
F 3 "~" H 2025 2625 50  0001 C CNN
	1    2025 2625
	1    0    0    -1  
$EndComp
$Comp
L Device:C_Small C10
U 1 1 5F6C354E
P 2175 2625
F 0 "C10" H 2175 2700 50  0000 L CNN
F 1 "100nF" H 2267 2580 50  0001 L CNN
F 2 "Capacitor_SMD:C_0603_1608Metric" H 2175 2625 50  0001 C CNN
F 3 "~" H 2175 2625 50  0001 C CNN
	1    2175 2625
	1    0    0    -1  
$EndComp
Wire Wire Line
	1850 2500 2025 2500
Wire Wire Line
	2025 2500 2025 2525
Wire Wire Line
	1850 2425 2175 2425
Wire Wire Line
	2175 2425 2175 2525
Wire Wire Line
	1850 2575 1875 2575
Wire Wire Line
	1875 2575 1875 2650
Wire Wire Line
	1875 2725 1850 2725
Wire Wire Line
	1850 2650 1875 2650
Connection ~ 1875 2650
Wire Wire Line
	1875 2650 1875 2725
Wire Wire Line
	1875 2825 1875 2800
Connection ~ 1875 2725
Wire Wire Line
	2025 2725 2025 2800
Wire Wire Line
	2025 2800 1875 2800
Connection ~ 1875 2800
Wire Wire Line
	1875 2800 1875 2725
Wire Wire Line
	2175 2725 2175 2800
Wire Wire Line
	2175 2800 2025 2800
Connection ~ 2025 2800
Text GLabel 775  2500 0    50   Input ~ 0
I_2
Text GLabel 775  2200 0    50   Output ~ 0
O_2
Wire Wire Line
	775  2200 1025 2200
Connection ~ 1025 2200
Wire Wire Line
	775  2500 1025 2500
Connection ~ 1025 2500
$Comp
L Symbols:ACS725KMATR-30AU-T U3
U 1 1 5F6C609C
P 1450 3300
F 0 "U3" H 1450 3725 50  0000 C CNN
F 1 "ACS725KMATR-30AU-T" H 1450 3751 50  0001 C CNN
F 2 "Package_SO:SOIC-16W_7.5x10.3mm_P1.27mm" H 750 3825 50  0001 L CIN
F 3 "http://www.allegromicro.com/~/Media/Files/Datasheets/ACS711-Datasheet.ashx" H 1450 3300 50  0001 C CNN
	1    1450 3300
	1    0    0    -1  
$EndComp
Wire Wire Line
	1050 3225 1025 3225
Wire Wire Line
	1025 3225 1025 3150
Wire Wire Line
	1025 3000 1050 3000
Wire Wire Line
	1050 3075 1025 3075
Connection ~ 1025 3075
Wire Wire Line
	1025 3075 1025 3000
Wire Wire Line
	1050 3150 1025 3150
Connection ~ 1025 3150
Wire Wire Line
	1025 3150 1025 3075
Wire Wire Line
	1050 3300 1025 3300
Wire Wire Line
	1025 3300 1025 3375
Wire Wire Line
	1025 3525 1050 3525
Wire Wire Line
	1050 3450 1025 3450
Connection ~ 1025 3450
Wire Wire Line
	1025 3450 1025 3525
Wire Wire Line
	1050 3375 1025 3375
Connection ~ 1025 3375
Wire Wire Line
	1025 3375 1025 3450
$Comp
L power:GND #PWR0103
U 1 1 5F6C60B4
P 1875 3625
F 0 "#PWR0103" H 1875 3375 50  0001 C CNN
F 1 "GND" H 2025 3575 50  0000 C CNN
F 2 "" H 1875 3625 50  0001 C CNN
F 3 "" H 1875 3625 50  0001 C CNN
	1    1875 3625
	1    0    0    -1  
$EndComp
$Comp
L Device:C_Small C4
U 1 1 5F6C60BA
P 2025 3425
F 0 "C4" H 2025 3500 50  0000 L CNN
F 1 "10nF" H 2117 3380 50  0001 L CNN
F 2 "Capacitor_SMD:C_0603_1608Metric" H 2025 3425 50  0001 C CNN
F 3 "~" H 2025 3425 50  0001 C CNN
	1    2025 3425
	1    0    0    -1  
$EndComp
$Comp
L Device:C_Small C11
U 1 1 5F6C60C0
P 2175 3425
F 0 "C11" H 2175 3500 50  0000 L CNN
F 1 "100nF" H 2267 3380 50  0001 L CNN
F 2 "Capacitor_SMD:C_0603_1608Metric" H 2175 3425 50  0001 C CNN
F 3 "~" H 2175 3425 50  0001 C CNN
	1    2175 3425
	1    0    0    -1  
$EndComp
Wire Wire Line
	1850 3300 2025 3300
Wire Wire Line
	2025 3300 2025 3325
Wire Wire Line
	1850 3225 2175 3225
Wire Wire Line
	2175 3225 2175 3325
Wire Wire Line
	1850 3375 1875 3375
Wire Wire Line
	1875 3375 1875 3450
Wire Wire Line
	1875 3525 1850 3525
Wire Wire Line
	1850 3450 1875 3450
Connection ~ 1875 3450
Wire Wire Line
	1875 3450 1875 3525
Wire Wire Line
	1875 3625 1875 3600
Connection ~ 1875 3525
Wire Wire Line
	2025 3525 2025 3600
Wire Wire Line
	2025 3600 1875 3600
Connection ~ 1875 3600
Wire Wire Line
	1875 3600 1875 3525
Wire Wire Line
	2175 3525 2175 3600
Wire Wire Line
	2175 3600 2025 3600
Connection ~ 2025 3600
Text GLabel 775  3300 0    50   Input ~ 0
I_3
Text GLabel 775  3000 0    50   Output ~ 0
O_3
Wire Wire Line
	775  3000 1025 3000
Connection ~ 1025 3000
Wire Wire Line
	775  3300 1025 3300
Connection ~ 1025 3300
$Comp
L Symbols:ACS725KMATR-30AU-T U4
U 1 1 5F6C9674
P 1450 4100
F 0 "U4" H 1450 4525 50  0000 C CNN
F 1 "ACS725KMATR-30AU-T" H 1450 4551 50  0001 C CNN
F 2 "Package_SO:SOIC-16W_7.5x10.3mm_P1.27mm" H 750 4625 50  0001 L CIN
F 3 "http://www.allegromicro.com/~/Media/Files/Datasheets/ACS711-Datasheet.ashx" H 1450 4100 50  0001 C CNN
	1    1450 4100
	1    0    0    -1  
$EndComp
Wire Wire Line
	1050 4025 1025 4025
Wire Wire Line
	1025 4025 1025 3950
Wire Wire Line
	1025 3800 1050 3800
Wire Wire Line
	1050 3875 1025 3875
Connection ~ 1025 3875
Wire Wire Line
	1025 3875 1025 3800
Wire Wire Line
	1050 3950 1025 3950
Connection ~ 1025 3950
Wire Wire Line
	1025 3950 1025 3875
Wire Wire Line
	1050 4100 1025 4100
Wire Wire Line
	1025 4100 1025 4175
Wire Wire Line
	1025 4325 1050 4325
Wire Wire Line
	1050 4250 1025 4250
Connection ~ 1025 4250
Wire Wire Line
	1025 4250 1025 4325
Wire Wire Line
	1050 4175 1025 4175
Connection ~ 1025 4175
Wire Wire Line
	1025 4175 1025 4250
$Comp
L power:GND #PWR0104
U 1 1 5F6C968C
P 1875 4425
F 0 "#PWR0104" H 1875 4175 50  0001 C CNN
F 1 "GND" H 2025 4375 50  0000 C CNN
F 2 "" H 1875 4425 50  0001 C CNN
F 3 "" H 1875 4425 50  0001 C CNN
	1    1875 4425
	1    0    0    -1  
$EndComp
$Comp
L Device:C_Small C5
U 1 1 5F6C9692
P 2025 4225
F 0 "C5" H 2025 4300 50  0000 L CNN
F 1 "10nF" H 2117 4180 50  0001 L CNN
F 2 "Capacitor_SMD:C_0603_1608Metric" H 2025 4225 50  0001 C CNN
F 3 "~" H 2025 4225 50  0001 C CNN
	1    2025 4225
	1    0    0    -1  
$EndComp
$Comp
L Device:C_Small C12
U 1 1 5F6C9698
P 2175 4225
F 0 "C12" H 2175 4300 50  0000 L CNN
F 1 "100nF" H 2267 4180 50  0001 L CNN
F 2 "Capacitor_SMD:C_0603_1608Metric" H 2175 4225 50  0001 C CNN
F 3 "~" H 2175 4225 50  0001 C CNN
	1    2175 4225
	1    0    0    -1  
$EndComp
Wire Wire Line
	1850 4100 2025 4100
Wire Wire Line
	2025 4100 2025 4125
Wire Wire Line
	1850 4025 2175 4025
Wire Wire Line
	2175 4025 2175 4125
Wire Wire Line
	1850 4175 1875 4175
Wire Wire Line
	1875 4175 1875 4250
Wire Wire Line
	1875 4325 1850 4325
Wire Wire Line
	1850 4250 1875 4250
Connection ~ 1875 4250
Wire Wire Line
	1875 4250 1875 4325
Wire Wire Line
	1875 4425 1875 4400
Connection ~ 1875 4325
Wire Wire Line
	2025 4325 2025 4400
Wire Wire Line
	2025 4400 1875 4400
Connection ~ 1875 4400
Wire Wire Line
	1875 4400 1875 4325
Wire Wire Line
	2175 4325 2175 4400
Wire Wire Line
	2175 4400 2025 4400
Connection ~ 2025 4400
Text GLabel 775  4100 0    50   Input ~ 0
I_4
Text GLabel 775  3800 0    50   Output ~ 0
O_4
Wire Wire Line
	775  3800 1025 3800
Connection ~ 1025 3800
Wire Wire Line
	775  4100 1025 4100
Connection ~ 1025 4100
$Comp
L Symbols:ACS725KMATR-30AU-T U5
U 1 1 5F6CEFD1
P 1450 4900
F 0 "U5" H 1450 5325 50  0000 C CNN
F 1 "ACS725KMATR-30AU-T" H 1450 5351 50  0001 C CNN
F 2 "Package_SO:SOIC-16W_7.5x10.3mm_P1.27mm" H 750 5425 50  0001 L CIN
F 3 "http://www.allegromicro.com/~/Media/Files/Datasheets/ACS711-Datasheet.ashx" H 1450 4900 50  0001 C CNN
	1    1450 4900
	1    0    0    -1  
$EndComp
Wire Wire Line
	1050 4825 1025 4825
Wire Wire Line
	1025 4825 1025 4750
Wire Wire Line
	1025 4600 1050 4600
Wire Wire Line
	1050 4675 1025 4675
Connection ~ 1025 4675
Wire Wire Line
	1025 4675 1025 4600
Wire Wire Line
	1050 4750 1025 4750
Connection ~ 1025 4750
Wire Wire Line
	1025 4750 1025 4675
Wire Wire Line
	1050 4900 1025 4900
Wire Wire Line
	1025 4900 1025 4975
Wire Wire Line
	1025 5125 1050 5125
Wire Wire Line
	1050 5050 1025 5050
Connection ~ 1025 5050
Wire Wire Line
	1025 5050 1025 5125
Wire Wire Line
	1050 4975 1025 4975
Connection ~ 1025 4975
Wire Wire Line
	1025 4975 1025 5050
$Comp
L power:GND #PWR0105
U 1 1 5F6CEFE9
P 1875 5225
F 0 "#PWR0105" H 1875 4975 50  0001 C CNN
F 1 "GND" H 2025 5175 50  0000 C CNN
F 2 "" H 1875 5225 50  0001 C CNN
F 3 "" H 1875 5225 50  0001 C CNN
	1    1875 5225
	1    0    0    -1  
$EndComp
$Comp
L Device:C_Small C6
U 1 1 5F6CEFEF
P 2025 5025
F 0 "C6" H 2025 5100 50  0000 L CNN
F 1 "10nF" H 2117 4980 50  0001 L CNN
F 2 "Capacitor_SMD:C_0603_1608Metric" H 2025 5025 50  0001 C CNN
F 3 "~" H 2025 5025 50  0001 C CNN
	1    2025 5025
	1    0    0    -1  
$EndComp
$Comp
L Device:C_Small C13
U 1 1 5F6CEFF5
P 2175 5025
F 0 "C13" H 2175 5100 50  0000 L CNN
F 1 "100nF" H 2267 4980 50  0001 L CNN
F 2 "Capacitor_SMD:C_0603_1608Metric" H 2175 5025 50  0001 C CNN
F 3 "~" H 2175 5025 50  0001 C CNN
	1    2175 5025
	1    0    0    -1  
$EndComp
Wire Wire Line
	1850 4900 2025 4900
Wire Wire Line
	2025 4900 2025 4925
Wire Wire Line
	1850 4825 2175 4825
Wire Wire Line
	2175 4825 2175 4925
Wire Wire Line
	1850 4975 1875 4975
Wire Wire Line
	1875 4975 1875 5050
Wire Wire Line
	1875 5125 1850 5125
Wire Wire Line
	1850 5050 1875 5050
Connection ~ 1875 5050
Wire Wire Line
	1875 5050 1875 5125
Wire Wire Line
	1875 5225 1875 5200
Connection ~ 1875 5125
Wire Wire Line
	2025 5125 2025 5200
Wire Wire Line
	2025 5200 1875 5200
Connection ~ 1875 5200
Wire Wire Line
	1875 5200 1875 5125
Wire Wire Line
	2175 5125 2175 5200
Wire Wire Line
	2175 5200 2025 5200
Connection ~ 2025 5200
Text GLabel 775  4900 0    50   Input ~ 0
I_5
Text GLabel 775  4600 0    50   Output ~ 0
O_5
Wire Wire Line
	775  4600 1025 4600
Connection ~ 1025 4600
Wire Wire Line
	775  4900 1025 4900
Connection ~ 1025 4900
$Comp
L Symbols:ACS725KMATR-30AU-T U6
U 1 1 5F6D63A3
P 1450 5700
F 0 "U6" H 1450 6125 50  0000 C CNN
F 1 "ACS725KMATR-30AU-T" H 1450 6151 50  0001 C CNN
F 2 "Package_SO:SOIC-16W_7.5x10.3mm_P1.27mm" H 750 6225 50  0001 L CIN
F 3 "http://www.allegromicro.com/~/Media/Files/Datasheets/ACS711-Datasheet.ashx" H 1450 5700 50  0001 C CNN
	1    1450 5700
	1    0    0    -1  
$EndComp
Wire Wire Line
	1050 5625 1025 5625
Wire Wire Line
	1025 5625 1025 5550
Wire Wire Line
	1025 5400 1050 5400
Wire Wire Line
	1050 5475 1025 5475
Connection ~ 1025 5475
Wire Wire Line
	1025 5475 1025 5400
Wire Wire Line
	1050 5550 1025 5550
Connection ~ 1025 5550
Wire Wire Line
	1025 5550 1025 5475
Wire Wire Line
	1050 5700 1025 5700
Wire Wire Line
	1025 5700 1025 5775
Wire Wire Line
	1025 5925 1050 5925
Wire Wire Line
	1050 5850 1025 5850
Connection ~ 1025 5850
Wire Wire Line
	1025 5850 1025 5925
Wire Wire Line
	1050 5775 1025 5775
Connection ~ 1025 5775
Wire Wire Line
	1025 5775 1025 5850
$Comp
L power:GND #PWR0106
U 1 1 5F6D63BB
P 1875 6025
F 0 "#PWR0106" H 1875 5775 50  0001 C CNN
F 1 "GND" H 2025 5975 50  0000 C CNN
F 2 "" H 1875 6025 50  0001 C CNN
F 3 "" H 1875 6025 50  0001 C CNN
	1    1875 6025
	1    0    0    -1  
$EndComp
$Comp
L Device:C_Small C7
U 1 1 5F6D63C1
P 2025 5825
F 0 "C7" H 2025 5900 50  0000 L CNN
F 1 "10nF" H 2117 5780 50  0001 L CNN
F 2 "Capacitor_SMD:C_0603_1608Metric" H 2025 5825 50  0001 C CNN
F 3 "~" H 2025 5825 50  0001 C CNN
	1    2025 5825
	1    0    0    -1  
$EndComp
$Comp
L Device:C_Small C14
U 1 1 5F6D63C7
P 2175 5825
F 0 "C14" H 2175 5900 50  0000 L CNN
F 1 "100nF" H 2267 5780 50  0001 L CNN
F 2 "Capacitor_SMD:C_0603_1608Metric" H 2175 5825 50  0001 C CNN
F 3 "~" H 2175 5825 50  0001 C CNN
	1    2175 5825
	1    0    0    -1  
$EndComp
Wire Wire Line
	1850 5700 2025 5700
Wire Wire Line
	2025 5700 2025 5725
Wire Wire Line
	1850 5625 2175 5625
Wire Wire Line
	2175 5625 2175 5725
Wire Wire Line
	1850 5775 1875 5775
Wire Wire Line
	1875 5775 1875 5850
Wire Wire Line
	1875 5925 1850 5925
Wire Wire Line
	1850 5850 1875 5850
Connection ~ 1875 5850
Wire Wire Line
	1875 5850 1875 5925
Wire Wire Line
	1875 6025 1875 6000
Connection ~ 1875 5925
Wire Wire Line
	2025 5925 2025 6000
Wire Wire Line
	2025 6000 1875 6000
Connection ~ 1875 6000
Wire Wire Line
	1875 6000 1875 5925
Wire Wire Line
	2175 5925 2175 6000
Wire Wire Line
	2175 6000 2025 6000
Connection ~ 2025 6000
Text GLabel 775  5700 0    50   Input ~ 0
I_6
Text GLabel 775  5400 0    50   Output ~ 0
O_6
Wire Wire Line
	775  5400 1025 5400
Connection ~ 1025 5400
Wire Wire Line
	775  5700 1025 5700
Connection ~ 1025 5700
$Comp
L Symbols:ACS725KMATR-30AU-T U7
U 1 1 5F6DF42D
P 1450 6500
F 0 "U7" H 1450 6925 50  0000 C CNN
F 1 "ACS725KMATR-30AU-T" H 1450 6951 50  0001 C CNN
F 2 "Package_SO:SOIC-16W_7.5x10.3mm_P1.27mm" H 750 7025 50  0001 L CIN
F 3 "http://www.allegromicro.com/~/Media/Files/Datasheets/ACS711-Datasheet.ashx" H 1450 6500 50  0001 C CNN
	1    1450 6500
	1    0    0    -1  
$EndComp
Wire Wire Line
	1050 6425 1025 6425
Wire Wire Line
	1025 6425 1025 6350
Wire Wire Line
	1025 6200 1050 6200
Wire Wire Line
	1050 6275 1025 6275
Connection ~ 1025 6275
Wire Wire Line
	1025 6275 1025 6200
Wire Wire Line
	1050 6350 1025 6350
Connection ~ 1025 6350
Wire Wire Line
	1025 6350 1025 6275
Wire Wire Line
	1050 6500 1025 6500
Wire Wire Line
	1025 6500 1025 6575
Wire Wire Line
	1025 6725 1050 6725
Wire Wire Line
	1050 6650 1025 6650
Connection ~ 1025 6650
Wire Wire Line
	1025 6650 1025 6725
Wire Wire Line
	1050 6575 1025 6575
Connection ~ 1025 6575
Wire Wire Line
	1025 6575 1025 6650
$Comp
L power:GND #PWR0107
U 1 1 5F6DF445
P 1875 6825
F 0 "#PWR0107" H 1875 6575 50  0001 C CNN
F 1 "GND" H 2025 6775 50  0000 C CNN
F 2 "" H 1875 6825 50  0001 C CNN
F 3 "" H 1875 6825 50  0001 C CNN
	1    1875 6825
	1    0    0    -1  
$EndComp
$Comp
L Device:C_Small C8
U 1 1 5F6DF44B
P 2025 6625
F 0 "C8" H 2025 6700 50  0000 L CNN
F 1 "10nF" H 2117 6580 50  0001 L CNN
F 2 "Capacitor_SMD:C_0603_1608Metric" H 2025 6625 50  0001 C CNN
F 3 "~" H 2025 6625 50  0001 C CNN
	1    2025 6625
	1    0    0    -1  
$EndComp
$Comp
L Device:C_Small C15
U 1 1 5F6DF451
P 2175 6625
F 0 "C15" H 2175 6700 50  0000 L CNN
F 1 "100nF" H 2267 6580 50  0001 L CNN
F 2 "Capacitor_SMD:C_0603_1608Metric" H 2175 6625 50  0001 C CNN
F 3 "~" H 2175 6625 50  0001 C CNN
	1    2175 6625
	1    0    0    -1  
$EndComp
Wire Wire Line
	1850 6500 2025 6500
Wire Wire Line
	2025 6500 2025 6525
Wire Wire Line
	1850 6425 2175 6425
Wire Wire Line
	2175 6425 2175 6525
Wire Wire Line
	1850 6575 1875 6575
Wire Wire Line
	1875 6575 1875 6650
Wire Wire Line
	1875 6725 1850 6725
Wire Wire Line
	1850 6650 1875 6650
Connection ~ 1875 6650
Wire Wire Line
	1875 6650 1875 6725
Wire Wire Line
	1875 6825 1875 6800
Connection ~ 1875 6725
Wire Wire Line
	2025 6725 2025 6800
Wire Wire Line
	2025 6800 1875 6800
Connection ~ 1875 6800
Wire Wire Line
	1875 6800 1875 6725
Wire Wire Line
	2175 6725 2175 6800
Wire Wire Line
	2175 6800 2025 6800
Connection ~ 2025 6800
Text GLabel 775  6500 0    50   Input ~ 0
I_7
Text GLabel 775  6200 0    50   Output ~ 0
O_7
Wire Wire Line
	775  6200 1025 6200
Connection ~ 1025 6200
Wire Wire Line
	775  6500 1025 6500
Connection ~ 1025 6500
$Comp
L Symbols:ACS725KMATR-30AU-T U8
U 1 1 5F6EEE98
P 1450 7300
F 0 "U8" H 1450 7725 50  0000 C CNN
F 1 "ACS725KMATR-30AU-T" H 1450 7751 50  0001 C CNN
F 2 "Package_SO:SOIC-16W_7.5x10.3mm_P1.27mm" H 750 7825 50  0001 L CIN
F 3 "http://www.allegromicro.com/~/Media/Files/Datasheets/ACS711-Datasheet.ashx" H 1450 7300 50  0001 C CNN
	1    1450 7300
	1    0    0    -1  
$EndComp
Wire Wire Line
	1050 7225 1025 7225
Wire Wire Line
	1025 7225 1025 7150
Wire Wire Line
	1025 7000 1050 7000
Wire Wire Line
	1050 7075 1025 7075
Connection ~ 1025 7075
Wire Wire Line
	1025 7075 1025 7000
Wire Wire Line
	1050 7150 1025 7150
Connection ~ 1025 7150
Wire Wire Line
	1025 7150 1025 7075
Wire Wire Line
	1050 7300 1025 7300
Wire Wire Line
	1025 7300 1025 7375
Wire Wire Line
	1025 7525 1050 7525
Wire Wire Line
	1050 7450 1025 7450
Connection ~ 1025 7450
Wire Wire Line
	1025 7450 1025 7525
Wire Wire Line
	1050 7375 1025 7375
Connection ~ 1025 7375
Wire Wire Line
	1025 7375 1025 7450
$Comp
L power:GND #PWR0108
U 1 1 5F6EEEB0
P 1875 7625
F 0 "#PWR0108" H 1875 7375 50  0001 C CNN
F 1 "GND" H 2025 7575 50  0000 C CNN
F 2 "" H 1875 7625 50  0001 C CNN
F 3 "" H 1875 7625 50  0001 C CNN
	1    1875 7625
	1    0    0    -1  
$EndComp
$Comp
L Device:C_Small C9
U 1 1 5F6EEEB6
P 2025 7425
F 0 "C9" H 2025 7500 50  0000 L CNN
F 1 "10nF" H 2117 7380 50  0001 L CNN
F 2 "Capacitor_SMD:C_0603_1608Metric" H 2025 7425 50  0001 C CNN
F 3 "~" H 2025 7425 50  0001 C CNN
	1    2025 7425
	1    0    0    -1  
$EndComp
$Comp
L Device:C_Small C16
U 1 1 5F6EEEBC
P 2175 7425
F 0 "C16" H 2175 7500 50  0000 L CNN
F 1 "100nF" H 2267 7380 50  0001 L CNN
F 2 "Capacitor_SMD:C_0603_1608Metric" H 2175 7425 50  0001 C CNN
F 3 "~" H 2175 7425 50  0001 C CNN
	1    2175 7425
	1    0    0    -1  
$EndComp
Wire Wire Line
	1850 7300 2025 7300
Wire Wire Line
	2025 7300 2025 7325
Wire Wire Line
	1850 7225 2175 7225
Wire Wire Line
	2175 7225 2175 7325
Wire Wire Line
	1850 7375 1875 7375
Wire Wire Line
	1875 7375 1875 7450
Wire Wire Line
	1875 7525 1850 7525
Wire Wire Line
	1850 7450 1875 7450
Connection ~ 1875 7450
Wire Wire Line
	1875 7450 1875 7525
Wire Wire Line
	1875 7625 1875 7600
Connection ~ 1875 7525
Wire Wire Line
	2025 7525 2025 7600
Wire Wire Line
	2025 7600 1875 7600
Connection ~ 1875 7600
Wire Wire Line
	1875 7600 1875 7525
Wire Wire Line
	2175 7525 2175 7600
Wire Wire Line
	2175 7600 2025 7600
Connection ~ 2025 7600
Text GLabel 775  7300 0    50   Input ~ 0
I_8
Text GLabel 775  7000 0    50   Output ~ 0
O_8
Wire Wire Line
	775  7000 1025 7000
Connection ~ 1025 7000
Wire Wire Line
	775  7300 1025 7300
Connection ~ 1025 7300
$Comp
L Isolator_Analog:IL300 U10
U 1 1 5F7272F2
P 3950 1375
F 0 "U10" H 3950 1808 50  0000 C CNN
F 1 "HCNR200-500E" H 3950 1809 50  0001 C CNN
F 2 "Package_DIP:DIP-8_W7.62mm" H 3650 1675 50  0001 L CNN
F 3 "" H 3750 1775 50  0001 L CNN
	1    3950 1375
	1    0    0    -1  
$EndComp
$Comp
L Amplifier_Operational:LMV321 U11
U 1 1 5F72EDA1
P 3075 1075
F 0 "U11" H 3125 1225 50  0000 L CNN
F 1 "LMV321" H 3419 1030 50  0001 L CNN
F 2 "Package_TO_SOT_SMD:SOT-23-5" H 3075 1075 50  0001 L CNN
F 3 "http://www.ti.com/lit/ds/symlink/lmv324.pdf" H 3075 1075 50  0001 C CNN
	1    3075 1075
	1    0    0    -1  
$EndComp
$Comp
L Amplifier_Operational:LMV321 U12
U 1 1 5F72FA9B
P 4675 1675
F 0 "U12" H 4750 1800 50  0000 L CNN
F 1 "LMV321" H 5019 1630 50  0001 L CNN
F 2 "Package_TO_SOT_SMD:SOT-23-5" H 4675 1675 50  0001 L CNN
F 3 "http://www.ti.com/lit/ds/symlink/lmv324.pdf" H 4675 1675 50  0001 C CNN
	1    4675 1675
	1    0    0    -1  
$EndComp
$Comp
L Device:R_Small R1
U 1 1 5F7318CF
P 1650 975
F 0 "R1" V 1546 975 50  0000 C CNN
F 1 "200k" V 1545 975 50  0001 C CNN
F 2 "Resistor_SMD:R_1206_3216Metric" H 1650 975 50  0001 C CNN
F 3 "~" H 1650 975 50  0001 C CNN
	1    1650 975 
	0    1    1    0   
$EndComp
$Comp
L Device:R_Small R2
U 1 1 5F7322A9
P 1875 975
F 0 "R2" V 1771 975 50  0000 C CNN
F 1 "200k" V 1770 975 50  0001 C CNN
F 2 "Resistor_SMD:R_1206_3216Metric" H 1875 975 50  0001 C CNN
F 3 "~" H 1875 975 50  0001 C CNN
	1    1875 975 
	0    1    1    0   
$EndComp
$Comp
L Device:R_Small R3
U 1 1 5F732B01
P 2100 975
F 0 "R3" V 1996 975 50  0000 C CNN
F 1 "200k" V 1995 975 50  0001 C CNN
F 2 "Resistor_SMD:R_1206_3216Metric" H 2100 975 50  0001 C CNN
F 3 "~" H 2100 975 50  0001 C CNN
	1    2100 975 
	0    1    1    0   
$EndComp
$Comp
L Device:R_Small R7
U 1 1 5F733375
P 1425 975
F 0 "R7" V 1321 975 50  0000 C CNN
F 1 "200k" V 1320 975 50  0001 C CNN
F 2 "Resistor_SMD:R_1206_3216Metric" H 1425 975 50  0001 C CNN
F 3 "~" H 1425 975 50  0001 C CNN
	1    1425 975 
	0    1    1    0   
$EndComp
$Comp
L Device:R_Small R4
U 1 1 5F733C8D
P 2325 975
F 0 "R4" V 2221 975 50  0000 C CNN
F 1 "200k" V 2220 975 50  0001 C CNN
F 2 "Resistor_SMD:R_1206_3216Metric" H 2325 975 50  0001 C CNN
F 3 "~" H 2325 975 50  0001 C CNN
	1    2325 975 
	0    1    1    0   
$EndComp
$Comp
L Device:R_Small R6
U 1 1 5F734615
P 975 975
F 0 "R6" V 871 975 50  0000 C CNN
F 1 "200k" V 870 975 50  0001 C CNN
F 2 "Resistor_SMD:R_1206_3216Metric" H 975 975 50  0001 C CNN
F 3 "~" H 975 975 50  0001 C CNN
	1    975  975 
	0    1    1    0   
$EndComp
$Comp
L Device:R_Small R5
U 1 1 5F735132
P 2450 1300
F 0 "R5" H 2300 1300 50  0000 L CNN
F 1 "3k01" H 2509 1255 50  0001 L CNN
F 2 "Resistor_SMD:R_0603_1608Metric" H 2450 1300 50  0001 C CNN
F 3 "~" H 2450 1300 50  0001 C CNN
	1    2450 1300
	1    0    0    -1  
$EndComp
$Comp
L Device:R_Small R8
U 1 1 5F735E9A
P 1200 975
F 0 "R8" V 1096 975 50  0000 C CNN
F 1 "200k" V 1095 975 50  0001 C CNN
F 2 "Resistor_SMD:R_1206_3216Metric" H 1200 975 50  0001 C CNN
F 3 "~" H 1200 975 50  0001 C CNN
	1    1200 975 
	0    1    1    0   
$EndComp
$Comp
L Symbols:F05_N-1WR3 PS1
U 1 1 5F77D91D
P 3250 2125
F 0 "PS1" H 3250 2375 50  0000 C CNN
F 1 "F05_N-1WR3" H 3250 2401 50  0001 C CNN
F 2 "Footprints:Converter_DCDC_F0505N-1WR3" H 2200 1875 50  0001 L CNN
F 3 "https://power.murata.com/pub/data/power/ncl/kdc_mee1.pdf" H 4300 1825 50  0001 L CNN
	1    3250 2125
	-1   0    0    -1  
$EndComp
$Comp
L power:+3.3V #PWR0109
U 1 1 5F7B7924
P 2175 1625
F 0 "#PWR0109" H 2175 1475 50  0001 C CNN
F 1 "+3.3V" H 2025 1700 50  0000 C CNN
F 2 "" H 2175 1625 50  0001 C CNN
F 3 "" H 2175 1625 50  0001 C CNN
	1    2175 1625
	1    0    0    -1  
$EndComp
Connection ~ 2175 1625
Text GLabel 2000 1400 2    50   Output ~ 0
Sen1
Wire Wire Line
	2000 1400 1850 1400
$Comp
L power:+3.3V #PWR0110
U 1 1 5F84E81A
P 2175 2425
F 0 "#PWR0110" H 2175 2275 50  0001 C CNN
F 1 "+3.3V" H 2025 2500 50  0000 C CNN
F 2 "" H 2175 2425 50  0001 C CNN
F 3 "" H 2175 2425 50  0001 C CNN
	1    2175 2425
	1    0    0    -1  
$EndComp
Connection ~ 2175 2425
$Comp
L power:+3.3V #PWR0111
U 1 1 5F84EC3C
P 2175 3225
F 0 "#PWR0111" H 2175 3075 50  0001 C CNN
F 1 "+3.3V" H 2025 3300 50  0000 C CNN
F 2 "" H 2175 3225 50  0001 C CNN
F 3 "" H 2175 3225 50  0001 C CNN
	1    2175 3225
	1    0    0    -1  
$EndComp
Connection ~ 2175 3225
$Comp
L power:+3.3V #PWR0112
U 1 1 5F850172
P 2175 4025
F 0 "#PWR0112" H 2175 3875 50  0001 C CNN
F 1 "+3.3V" H 2025 4100 50  0000 C CNN
F 2 "" H 2175 4025 50  0001 C CNN
F 3 "" H 2175 4025 50  0001 C CNN
	1    2175 4025
	1    0    0    -1  
$EndComp
Connection ~ 2175 4025
$Comp
L power:+3.3V #PWR0113
U 1 1 5F852D4E
P 2175 4825
F 0 "#PWR0113" H 2175 4675 50  0001 C CNN
F 1 "+3.3V" H 2025 4900 50  0000 C CNN
F 2 "" H 2175 4825 50  0001 C CNN
F 3 "" H 2175 4825 50  0001 C CNN
	1    2175 4825
	1    0    0    -1  
$EndComp
Connection ~ 2175 4825
$Comp
L power:+3.3V #PWR0114
U 1 1 5F85339F
P 2175 5625
F 0 "#PWR0114" H 2175 5475 50  0001 C CNN
F 1 "+3.3V" H 2025 5700 50  0000 C CNN
F 2 "" H 2175 5625 50  0001 C CNN
F 3 "" H 2175 5625 50  0001 C CNN
	1    2175 5625
	1    0    0    -1  
$EndComp
Connection ~ 2175 5625
$Comp
L power:+3.3V #PWR0115
U 1 1 5F854E48
P 2175 6425
F 0 "#PWR0115" H 2175 6275 50  0001 C CNN
F 1 "+3.3V" H 2025 6500 50  0000 C CNN
F 2 "" H 2175 6425 50  0001 C CNN
F 3 "" H 2175 6425 50  0001 C CNN
	1    2175 6425
	1    0    0    -1  
$EndComp
Connection ~ 2175 6425
$Comp
L power:+3.3V #PWR0116
U 1 1 5F855320
P 2175 7225
F 0 "#PWR0116" H 2175 7075 50  0001 C CNN
F 1 "+3.3V" H 2025 7300 50  0000 C CNN
F 2 "" H 2175 7225 50  0001 C CNN
F 3 "" H 2175 7225 50  0001 C CNN
	1    2175 7225
	1    0    0    -1  
$EndComp
Connection ~ 2175 7225
$Comp
L Device:R_Small R9
U 1 1 5F8E0722
P 2575 1300
F 0 "R9" H 2525 1475 50  0000 L CNN
F 1 "47k" H 2634 1255 50  0001 L CNN
F 2 "Resistor_SMD:R_0603_1608Metric" H 2575 1300 50  0001 C CNN
F 3 "~" H 2575 1300 50  0001 C CNN
	1    2575 1300
	1    0    0    -1  
$EndComp
$Comp
L Device:C_Small C17
U 1 1 5F8E4834
P 2725 1300
F 0 "C17" H 2675 1475 50  0000 L CNN
F 1 "10nF" H 2817 1255 50  0001 L CNN
F 2 "Capacitor_SMD:C_0603_1608Metric" H 2725 1300 50  0001 C CNN
F 3 "~" H 2725 1300 50  0001 C CNN
	1    2725 1300
	1    0    0    -1  
$EndComp
Wire Wire Line
	2425 975  2450 975 
Wire Wire Line
	2450 1200 2450 975 
Wire Wire Line
	2575 1200 2575 1175
Wire Wire Line
	2575 1175 2725 1175
Wire Wire Line
	2725 1200 2725 1175
Connection ~ 2725 1175
Wire Wire Line
	2725 1175 2775 1175
$Comp
L Device:R_Small R10
U 1 1 5F94DF02
P 3525 1075
F 0 "R10" V 3450 1025 50  0000 L CNN
F 1 "100" H 3584 1030 50  0001 L CNN
F 2 "Resistor_SMD:R_0603_1608Metric" H 3525 1075 50  0001 C CNN
F 3 "~" H 3525 1075 50  0001 C CNN
	1    3525 1075
	0    1    1    0   
$EndComp
Wire Wire Line
	3650 1075 3625 1075
Wire Wire Line
	3375 1075 3400 1075
Wire Wire Line
	2725 1400 2725 1575
Wire Wire Line
	2725 1575 3400 1575
Wire Wire Line
	3400 1575 3400 1075
Connection ~ 3400 1075
Wire Wire Line
	3400 1075 3425 1075
Wire Wire Line
	3650 1675 2575 1675
Wire Wire Line
	2575 1675 2575 1400
$Comp
L power:+5VL #PWR0117
U 1 1 5F996707
P 2975 750
F 0 "#PWR0117" H 2975 600 50  0001 C CNN
F 1 "+5VL" H 2990 923 50  0000 C CNN
F 2 "" H 2975 750 50  0001 C CNN
F 3 "" H 2975 750 50  0001 C CNN
	1    2975 750 
	1    0    0    -1  
$EndComp
$Comp
L power:GND1 #PWR0118
U 1 1 5F99B621
P 2450 1425
F 0 "#PWR0118" H 2450 1175 50  0001 C CNN
F 1 "GND1" H 2455 1252 50  0000 C CNN
F 2 "" H 2450 1425 50  0001 C CNN
F 3 "" H 2450 1425 50  0001 C CNN
	1    2450 1425
	1    0    0    -1  
$EndComp
$Comp
L power:+5VL #PWR0119
U 1 1 5F99CCAD
P 3625 1475
F 0 "#PWR0119" H 3625 1325 50  0001 C CNN
F 1 "+5VL" V 3700 1425 50  0000 L CNN
F 2 "" H 3625 1475 50  0001 C CNN
F 3 "" H 3625 1475 50  0001 C CNN
	1    3625 1475
	0    -1   -1   0   
$EndComp
$Comp
L power:GND1 #PWR0120
U 1 1 5F99D714
P 3625 1275
F 0 "#PWR0120" H 3625 1025 50  0001 C CNN
F 1 "GND1" V 3525 1325 50  0000 R CNN
F 2 "" H 3625 1275 50  0001 C CNN
F 3 "" H 3625 1275 50  0001 C CNN
	1    3625 1275
	0    1    1    0   
$EndComp
Wire Wire Line
	3650 1275 3625 1275
Wire Wire Line
	3625 1475 3650 1475
Wire Wire Line
	2975 750  2975 775 
Wire Wire Line
	2450 1400 2450 1425
Wire Wire Line
	2225 975  2200 975 
$Comp
L power:GND1 #PWR0121
U 1 1 5F9F9233
P 2975 1400
F 0 "#PWR0121" H 2975 1150 50  0001 C CNN
F 1 "GND1" H 3150 1325 50  0000 C CNN
F 2 "" H 2975 1400 50  0001 C CNN
F 3 "" H 2975 1400 50  0001 C CNN
	1    2975 1400
	1    0    0    -1  
$EndComp
Wire Wire Line
	2975 1375 2975 1400
Wire Wire Line
	1975 975  2000 975 
Wire Wire Line
	1775 975  1750 975 
Wire Wire Line
	1550 975  1525 975 
Wire Wire Line
	1325 975  1300 975 
Wire Wire Line
	1100 975  1075 975 
$Comp
L Connector:Conn_01x02_Female J2
U 1 1 5FAA5398
P 625 1075
F 0 "J2" H 517 842 50  0000 C CNN
F 1 "Conn_01x02_Female" H 517 841 50  0001 C CNN
F 2 "TerminalBlock_WAGO:TerminalBlock_WAGO_804-102_1x02_P5.00mm_45Degree" H 625 1075 50  0001 C CNN
F 3 "~" H 625 1075 50  0001 C CNN
	1    625  1075
	-1   0    0    1   
$EndComp
Wire Wire Line
	825  1075 850  1075
$Comp
L Device:C_Small C18
U 1 1 5FB350A9
P 2725 2125
F 0 "C18" H 2675 2300 50  0000 L CNN
F 1 "100nF" H 2817 2080 50  0001 L CNN
F 2 "Capacitor_SMD:C_0603_1608Metric" H 2725 2125 50  0001 C CNN
F 3 "~" H 2725 2125 50  0001 C CNN
	1    2725 2125
	1    0    0    -1  
$EndComp
$Comp
L power:GND1 #PWR0122
U 1 1 5FB37BE1
P 2600 2225
F 0 "#PWR0122" H 2600 1975 50  0001 C CNN
F 1 "GND1" V 2725 2200 50  0000 C CNN
F 2 "" H 2600 2225 50  0001 C CNN
F 3 "" H 2600 2225 50  0001 C CNN
	1    2600 2225
	0    1    1    0   
$EndComp
Wire Wire Line
	2725 2225 2850 2225
Wire Wire Line
	2725 2225 2600 2225
Connection ~ 2725 2225
$Comp
L power:+5VL #PWR0123
U 1 1 5FB617E0
P 2600 2025
F 0 "#PWR0123" H 2600 1875 50  0001 C CNN
F 1 "+5VL" V 2675 1975 50  0000 L CNN
F 2 "" H 2600 2025 50  0001 C CNN
F 3 "" H 2600 2025 50  0001 C CNN
	1    2600 2025
	0    -1   -1   0   
$EndComp
Wire Wire Line
	2600 2025 2725 2025
Wire Wire Line
	2850 2025 2725 2025
Connection ~ 2725 2025
$Comp
L power:GND #PWR0124
U 1 1 5F6AB412
P 3900 2225
F 0 "#PWR0124" H 3900 1975 50  0001 C CNN
F 1 "GND" V 3775 2175 50  0000 C CNN
F 2 "" H 3900 2225 50  0001 C CNN
F 3 "" H 3900 2225 50  0001 C CNN
	1    3900 2225
	0    -1   -1   0   
$EndComp
$Comp
L Device:C_Small C20
U 1 1 5F6AC9C4
P 3775 2125
F 0 "C20" H 3725 2300 50  0000 L CNN
F 1 "100nF" H 3867 2080 50  0001 L CNN
F 2 "Capacitor_SMD:C_0603_1608Metric" H 3775 2125 50  0001 C CNN
F 3 "~" H 3775 2125 50  0001 C CNN
	1    3775 2125
	1    0    0    -1  
$EndComp
Wire Wire Line
	3650 2225 3775 2225
Wire Wire Line
	3775 2225 3900 2225
Connection ~ 3775 2225
$Comp
L power:GND #PWR0125
U 1 1 5F6D6FCB
P 2725 3375
F 0 "#PWR0125" H 2725 3125 50  0001 C CNN
F 1 "GND" H 2875 3325 50  0000 C CNN
F 2 "" H 2725 3375 50  0001 C CNN
F 3 "" H 2725 3375 50  0001 C CNN
	1    2725 3375
	0    1    1    0   
$EndComp
$Comp
L power:+5V #PWR0126
U 1 1 5F75AF91
P 4575 1175
F 0 "#PWR0126" H 4575 1025 50  0001 C CNN
F 1 "+5V" H 4590 1348 50  0000 C CNN
F 2 "" H 4575 1175 50  0001 C CNN
F 3 "" H 4575 1175 50  0001 C CNN
	1    4575 1175
	1    0    0    -1  
$EndComp
$Comp
L Device:R_Small R13
U 1 1 5F77B7B7
P 4275 1700
F 0 "R13" H 4325 1750 50  0000 L CNN
F 1 "47k" H 4334 1655 50  0001 L CNN
F 2 "Resistor_SMD:R_0603_1608Metric" H 4275 1700 50  0001 C CNN
F 3 "~" H 4275 1700 50  0001 C CNN
	1    4275 1700
	1    0    0    -1  
$EndComp
Wire Wire Line
	4375 1775 4350 1775
Wire Wire Line
	4350 1775 4350 1950
Wire Wire Line
	4350 1950 5000 1950
Wire Wire Line
	5000 1950 5000 1675
Wire Wire Line
	5000 1675 4975 1675
$Comp
L power:GND #PWR0127
U 1 1 5F79D992
P 4575 2025
F 0 "#PWR0127" H 4575 1775 50  0001 C CNN
F 1 "GND" H 4725 1975 50  0000 C CNN
F 2 "" H 4575 2025 50  0001 C CNN
F 3 "" H 4575 2025 50  0001 C CNN
	1    4575 2025
	1    0    0    -1  
$EndComp
Wire Wire Line
	4575 1975 4575 2000
Wire Wire Line
	4250 1575 4275 1575
Wire Wire Line
	4275 1600 4275 1575
Connection ~ 4275 1575
Wire Wire Line
	4275 1575 4375 1575
Wire Wire Line
	4575 2000 4275 2000
Wire Wire Line
	4275 2000 4275 1800
Connection ~ 4575 2000
Wire Wire Line
	4575 2000 4575 2025
Wire Wire Line
	4250 1175 4575 1175
Wire Wire Line
	4575 1175 4575 1375
Connection ~ 4575 1175
Text GLabel 5025 1675 2    50   Output ~ 0
Volt
Wire Wire Line
	5000 1675 5025 1675
Connection ~ 5000 1675
$Comp
L power:+5V #PWR0128
U 1 1 5F8B2B64
P 3900 2025
F 0 "#PWR0128" H 3900 1875 50  0001 C CNN
F 1 "+5V" V 3800 2050 50  0000 L CNN
F 2 "" H 3900 2025 50  0001 C CNN
F 3 "" H 3900 2025 50  0001 C CNN
	1    3900 2025
	0    1    1    0   
$EndComp
Wire Wire Line
	3650 2025 3775 2025
Wire Wire Line
	3775 2025 3900 2025
Connection ~ 3775 2025
Wire Wire Line
	2775 975  2450 975 
Connection ~ 2450 975 
$Comp
L power:GND #PWR0129
U 1 1 5FD06B9C
P 3625 5250
F 0 "#PWR0129" H 3625 5000 50  0001 C CNN
F 1 "GND" H 3775 5200 50  0000 C CNN
F 2 "" H 3625 5250 50  0001 C CNN
F 3 "" H 3625 5250 50  0001 C CNN
	1    3625 5250
	0    -1   -1   0   
$EndComp
Wire Wire Line
	3575 5150 3600 5150
Wire Wire Line
	3600 5150 3600 5250
Wire Wire Line
	3600 5250 3575 5250
Wire Wire Line
	3625 5250 3600 5250
Connection ~ 3600 5250
$Comp
L power:+5V #PWR0130
U 1 1 5FD4F28A
P 2575 4825
F 0 "#PWR0130" H 2575 4675 50  0001 C CNN
F 1 "+5V" H 2590 4998 50  0000 C CNN
F 2 "" H 2575 4825 50  0001 C CNN
F 3 "" H 2575 4825 50  0001 C CNN
	1    2575 4825
	0    -1   -1   0   
$EndComp
$Comp
L Connector:Conn_01x04_Male J3
U 1 1 5FD6A2F5
P 2875 4600
F 0 "J3" H 2950 4775 50  0000 R CNN
F 1 "Conn_01x04_Male" H 2847 4573 50  0001 R CNN
F 2 "Connector_PinHeader_2.54mm:PinHeader_2x02_P2.54mm_Vertical" H 2875 4600 50  0001 C CNN
F 3 "~" H 2875 4600 50  0001 C CNN
	1    2875 4600
	0    -1   -1   0   
$EndComp
$Comp
L power:GND #PWR0131
U 1 1 5FE4C39A
P 2775 4375
F 0 "#PWR0131" H 2775 4125 50  0001 C CNN
F 1 "GND" V 2875 4325 50  0000 C CNN
F 2 "" H 2775 4375 50  0001 C CNN
F 3 "" H 2775 4375 50  0001 C CNN
	1    2775 4375
	-1   0    0    1   
$EndComp
$Comp
L Connector:USB_B_Mini J1
U 1 1 5F700339
P 3175 5150
F 0 "J1" H 3200 5500 50  0000 R CNN
F 1 "USB_B_Mini" H 3232 5526 50  0001 C CNN
F 2 "Connector_USB:USB_Mini-B_Lumberg_2486_01_Horizontal" H 3325 5100 50  0001 C CNN
F 3 "~" H 3325 5100 50  0001 C CNN
	1    3175 5150
	0    -1   -1   0   
$EndComp
Wire Wire Line
	2975 4850 2975 4825
Wire Wire Line
	2975 4825 2650 4825
Wire Wire Line
	2775 4375 2775 4400
Wire Wire Line
	2875 4375 2875 4400
$Comp
L power:+3.3V #PWR0133
U 1 1 5FF5382F
P 4550 3375
F 0 "#PWR0133" H 4550 3225 50  0001 C CNN
F 1 "+3.3V" H 4400 3450 50  0000 C CNN
F 2 "" H 4550 3375 50  0001 C CNN
F 3 "" H 4550 3375 50  0001 C CNN
	1    4550 3375
	0    1    1    0   
$EndComp
$Comp
L Device:R_Small R14
U 1 1 5FF5982A
P 4250 2925
F 0 "R14" H 4300 2975 50  0000 L CNN
F 1 "2k2" H 4309 2880 50  0001 L CNN
F 2 "Resistor_SMD:R_0603_1608Metric" H 4250 2925 50  0001 C CNN
F 3 "~" H 4250 2925 50  0001 C CNN
	1    4250 2925
	0    1    1    0   
$EndComp
Text GLabel 3675 4475 3    50   Input ~ 0
Volt
Text GLabel 3775 4475 3    50   Input ~ 0
Sen1
Text GLabel 3875 4475 3    50   Input ~ 0
Sen2
Text GLabel 3975 4475 3    50   Input ~ 0
Sen3
Text GLabel 4075 4475 3    50   Input ~ 0
Sen4
Text GLabel 3075 2875 1    50   Input ~ 0
Sen5
Text GLabel 3375 4475 3    50   Input ~ 0
Sen6
Text GLabel 3475 4475 3    50   Input ~ 0
Sen7
Text GLabel 3575 4475 3    50   Input ~ 0
Sen8
Text GLabel 2000 2200 2    50   Output ~ 0
Sen2
Wire Wire Line
	2000 2200 1850 2200
Text GLabel 2000 3000 2    50   Output ~ 0
Sen3
Wire Wire Line
	2000 3000 1850 3000
Wire Wire Line
	4075 4475 4075 4175
Wire Wire Line
	3975 4175 3975 4475
Wire Wire Line
	3875 4175 3875 4475
Wire Wire Line
	3775 4175 3775 4475
Wire Wire Line
	3675 4175 3675 4475
Wire Wire Line
	3575 4175 3575 4475
Wire Wire Line
	3475 4175 3475 4475
Wire Wire Line
	3375 4175 3375 4475
$Comp
L MCU_ST_STM32F0:STM32F042F6Px U9
U 1 1 60080718
P 3575 3575
F 0 "U9" H 3650 2800 50  0000 C CNN
F 1 "STM32F042F6Px" H 3575 2595 50  0001 C CNN
F 2 "Package_SO:TSSOP-20_4.4x6.5mm_P0.65mm" H 3075 2875 50  0001 R CNN
F 3 "http://www.st.com/st-web-ui/static/active/en/resource/technical/document/datasheet/DM00105814.pdf" H 3575 3575 50  0001 C CNN
	1    3575 3575
	0    1    1    0   
$EndComp
Wire Wire Line
	3075 2975 3075 2875
Wire Wire Line
	2975 2975 2975 2950
Wire Wire Line
	2975 2950 2750 2950
Wire Wire Line
	2750 2950 2750 3375
Wire Wire Line
	2750 3375 2775 3375
Wire Wire Line
	2750 3375 2725 3375
Connection ~ 2750 3375
Wire Wire Line
	3275 4175 3275 4850
Wire Wire Line
	3175 4175 3175 4850
Wire Wire Line
	3075 4175 3075 4400
Wire Wire Line
	2975 4400 2975 4175
$Comp
L Device:C_Small C23
U 1 1 601F0E01
P 4500 3625
F 0 "C23" H 4500 3700 50  0000 L CNN
F 1 "100nF" H 4592 3580 50  0001 L CNN
F 2 "Capacitor_SMD:C_0603_1608Metric" H 4500 3625 50  0001 C CNN
F 3 "~" H 4500 3625 50  0001 C CNN
	1    4500 3625
	1    0    0    -1  
$EndComp
$Comp
L Device:C_Small C22
U 1 1 601F163A
P 4325 3625
F 0 "C22" H 4325 3700 50  0000 L CNN
F 1 "100nF" H 4417 3580 50  0001 L CNN
F 2 "Capacitor_SMD:C_0603_1608Metric" H 4325 3625 50  0001 C CNN
F 3 "~" H 4325 3625 50  0001 C CNN
	1    4325 3625
	1    0    0    -1  
$EndComp
Wire Wire Line
	4075 2975 4075 2925
Wire Wire Line
	4075 2925 4150 2925
Wire Wire Line
	4550 3375 4500 3375
Wire Wire Line
	4275 3475 4325 3475
Wire Wire Line
	4325 3475 4325 3525
Wire Wire Line
	4500 3525 4500 3475
Connection ~ 4500 3375
Wire Wire Line
	4500 3375 4500 2925
Wire Wire Line
	4500 2925 4350 2925
$Comp
L power:GND #PWR0134
U 1 1 60290484
P 4550 3750
F 0 "#PWR0134" H 4550 3500 50  0001 C CNN
F 1 "GND" H 4400 3700 50  0000 C CNN
F 2 "" H 4550 3750 50  0001 C CNN
F 3 "" H 4550 3750 50  0001 C CNN
	1    4550 3750
	0    -1   -1   0   
$EndComp
Wire Wire Line
	4325 3725 4325 3750
Wire Wire Line
	4325 3750 4500 3750
Wire Wire Line
	4500 3725 4500 3750
Connection ~ 4500 3750
Wire Wire Line
	4500 3750 4550 3750
Wire Wire Line
	4500 3375 4275 3375
Wire Wire Line
	4325 3475 4500 3475
Connection ~ 4325 3475
Connection ~ 4500 3475
Wire Wire Line
	4500 3475 4500 3375
$Comp
L Device:LED_Small_ALT D1
U 1 1 6030668B
P 3225 2825
F 0 "D1" V 3150 2850 50  0000 L CNN
F 1 "LED_Small_ALT" V 3270 2923 50  0001 L CNN
F 2 "Diode_SMD:D_0603_1608Metric" V 3225 2825 50  0001 C CNN
F 3 "~" V 3225 2825 50  0001 C CNN
	1    3225 2825
	0    1    1    0   
$EndComp
$Comp
L Device:LED_Small_ALT D2
U 1 1 60367165
P 3425 2825
F 0 "D2" V 3350 2875 50  0000 L CNN
F 1 "LED_Small_ALT" V 3470 2923 50  0001 L CNN
F 2 "Diode_SMD:D_0603_1608Metric" V 3425 2825 50  0001 C CNN
F 3 "~" V 3425 2825 50  0001 C CNN
	1    3425 2825
	0    1    1    0   
$EndComp
$Comp
L Device:R_Small R11
U 1 1 6036FB8A
P 3225 2600
F 0 "R11" H 3275 2650 50  0000 L CNN
F 1 "2k2" H 3284 2555 50  0001 L CNN
F 2 "Resistor_SMD:R_0603_1608Metric" H 3225 2600 50  0001 C CNN
F 3 "~" H 3225 2600 50  0001 C CNN
	1    3225 2600
	1    0    0    -1  
$EndComp
$Comp
L Device:R_Small R12
U 1 1 603A60CF
P 3425 2600
F 0 "R12" H 3475 2650 50  0000 L CNN
F 1 "2k2" H 3484 2555 50  0001 L CNN
F 2 "Resistor_SMD:R_0603_1608Metric" H 3425 2600 50  0001 C CNN
F 3 "~" H 3425 2600 50  0001 C CNN
	1    3425 2600
	1    0    0    -1  
$EndComp
$Comp
L power:GND #PWR0135
U 1 1 603A6506
P 3575 2475
F 0 "#PWR0135" H 3575 2225 50  0001 C CNN
F 1 "GND" H 3425 2425 50  0000 C CNN
F 2 "" H 3575 2475 50  0001 C CNN
F 3 "" H 3575 2475 50  0001 C CNN
	1    3575 2475
	0    -1   -1   0   
$EndComp
Wire Wire Line
	3575 2475 3425 2475
Wire Wire Line
	3225 2475 3225 2500
Wire Wire Line
	3425 2500 3425 2475
Connection ~ 3425 2475
Wire Wire Line
	3425 2475 3225 2475
Wire Wire Line
	3225 2725 3225 2700
Wire Wire Line
	3425 2725 3425 2700
Wire Wire Line
	3425 2925 3425 2950
Wire Wire Line
	3425 2950 3375 2950
Wire Wire Line
	3375 2950 3375 2975
Wire Wire Line
	3225 2925 3225 2950
Wire Wire Line
	3225 2950 3275 2950
Wire Wire Line
	3275 2950 3275 2975
$Comp
L Regulator_Linear:MCP1700-3302E_SOT23 U13
U 1 1 60452232
P 4425 5000
F 0 "U13" H 4425 5242 50  0000 C CNN
F 1 "MCP1700-3302E_SOT23" H 4425 5151 50  0000 C CNN
F 2 "Package_TO_SOT_SMD:SOT-23" H 4425 5225 50  0001 C CNN
F 3 "http://ww1.microchip.com/downloads/en/DeviceDoc/20001826D.pdf" H 4425 5000 50  0001 C CNN
	1    4425 5000
	1    0    0    -1  
$EndComp
$Comp
L Device:C_Small C24
U 1 1 60457B6A
P 4800 5125
F 0 "C24" H 4800 5200 50  0000 L CNN
F 1 "100nF" H 4892 5080 50  0001 L CNN
F 2 "Capacitor_SMD:C_0603_1608Metric" H 4800 5125 50  0001 C CNN
F 3 "~" H 4800 5125 50  0001 C CNN
	1    4800 5125
	1    0    0    -1  
$EndComp
$Comp
L Device:C_Small C21
U 1 1 604580EB
P 4050 5125
F 0 "C21" H 4050 5200 50  0000 L CNN
F 1 "100nF" H 4142 5080 50  0001 L CNN
F 2 "Capacitor_SMD:C_0603_1608Metric" H 4050 5125 50  0001 C CNN
F 3 "~" H 4050 5125 50  0001 C CNN
	1    4050 5125
	1    0    0    -1  
$EndComp
$Comp
L power:+5V #PWR0136
U 1 1 6045876A
P 3975 5000
F 0 "#PWR0136" H 3975 4850 50  0001 C CNN
F 1 "+5V" H 3990 5173 50  0000 C CNN
F 2 "" H 3975 5000 50  0001 C CNN
F 3 "" H 3975 5000 50  0001 C CNN
	1    3975 5000
	0    -1   -1   0   
$EndComp
$Comp
L power:GND #PWR0137
U 1 1 60458D31
P 4425 5375
F 0 "#PWR0137" H 4425 5125 50  0001 C CNN
F 1 "GND" H 4575 5325 50  0000 C CNN
F 2 "" H 4425 5375 50  0001 C CNN
F 3 "" H 4425 5375 50  0001 C CNN
	1    4425 5375
	1    0    0    -1  
$EndComp
$Comp
L power:+3.3V #PWR0138
U 1 1 604593B4
P 5125 5000
F 0 "#PWR0138" H 5125 4850 50  0001 C CNN
F 1 "+3.3V" H 4975 5075 50  0000 C CNN
F 2 "" H 5125 5000 50  0001 C CNN
F 3 "" H 5125 5000 50  0001 C CNN
	1    5125 5000
	0    1    1    0   
$EndComp
Wire Wire Line
	3975 5000 4050 5000
Wire Wire Line
	4050 5025 4050 5000
Connection ~ 4050 5000
Wire Wire Line
	4050 5000 4125 5000
Wire Wire Line
	4725 5000 4800 5000
Wire Wire Line
	4800 5025 4800 5000
Connection ~ 4800 5000
Wire Wire Line
	4800 5000 5000 5000
Wire Wire Line
	4425 5375 4425 5350
Wire Wire Line
	4050 5225 4050 5350
Wire Wire Line
	4050 5350 4425 5350
Connection ~ 4425 5350
Wire Wire Line
	4425 5350 4425 5300
Wire Wire Line
	4425 5350 4800 5350
Wire Wire Line
	4800 5350 4800 5225
$Comp
L Device:CP_Small C19
U 1 1 6054CBE1
P 2650 5100
F 0 "C19" H 2700 5175 50  0000 L CNN
F 1 "100uF 10v" H 2738 5055 50  0001 L CNN
F 2 "Capacitor_SMD:CP_Elec_5x5.4" H 2650 5100 50  0001 C CNN
F 3 "~" H 2650 5100 50  0001 C CNN
	1    2650 5100
	1    0    0    -1  
$EndComp
Wire Wire Line
	2650 5000 2650 4825
Connection ~ 2650 4825
Wire Wire Line
	2650 4825 2575 4825
$Comp
L power:GND #PWR0139
U 1 1 6056C1F6
P 2650 5250
F 0 "#PWR0139" H 2650 5000 50  0001 C CNN
F 1 "GND" H 2500 5175 50  0000 C CNN
F 2 "" H 2650 5250 50  0001 C CNN
F 3 "" H 2650 5250 50  0001 C CNN
	1    2650 5250
	1    0    0    -1  
$EndComp
Wire Wire Line
	2650 5250 2650 5200
Text GLabel 2000 3800 2    50   Output ~ 0
Sen4
Wire Wire Line
	2000 3800 1850 3800
$Comp
L Device:CP_Small C25
U 1 1 60809241
P 5000 5125
F 0 "C25" H 5050 5200 50  0000 L CNN
F 1 "100uF 10v" H 5088 5080 50  0001 L CNN
F 2 "Capacitor_SMD:CP_Elec_5x5.4" H 5000 5125 50  0001 C CNN
F 3 "~" H 5000 5125 50  0001 C CNN
	1    5000 5125
	1    0    0    -1  
$EndComp
Wire Wire Line
	5000 5225 5000 5350
Wire Wire Line
	5000 5350 4800 5350
Connection ~ 4800 5350
Wire Wire Line
	5000 5025 5000 5000
Connection ~ 5000 5000
Wire Wire Line
	5000 5000 5125 5000
$Comp
L power:+3.3V #PWR0132
U 1 1 60885B72
P 2875 4375
F 0 "#PWR0132" H 2875 4225 50  0001 C CNN
F 1 "+3.3V" H 2775 4575 50  0000 C CNN
F 2 "" H 2875 4375 50  0001 C CNN
F 3 "" H 2875 4375 50  0001 C CNN
	1    2875 4375
	1    0    0    -1  
$EndComp
Text GLabel 2025 4600 2    50   Output ~ 0
Sen5
Text GLabel 2000 5400 2    50   Output ~ 0
Sen6
Text GLabel 2025 6200 2    50   Output ~ 0
Sen7
Text GLabel 2025 7000 2    50   Output ~ 0
Sen8
Wire Wire Line
	1850 4600 2025 4600
Wire Wire Line
	2000 5400 1850 5400
Wire Wire Line
	1850 6200 2025 6200
Wire Wire Line
	1850 7000 2025 7000
Wire Wire Line
	825  975  875  975 
$Comp
L power:GND1 #PWR0140
U 1 1 608C8EE7
P 850 1075
F 0 "#PWR0140" H 850 825 50  0001 C CNN
F 1 "GND1" H 1025 1000 50  0000 C CNN
F 2 "" H 850 1075 50  0001 C CNN
F 3 "" H 850 1075 50  0001 C CNN
	1    850  1075
	0    -1   -1   0   
$EndComp
$EndSCHEMATC
