EESchema Schematic File Version 4
EELAYER 30 0
EELAYER END
$Descr User 8661 5118
encoding utf-8
Sheet 1 1
Title ""
Date ""
Rev ""
Comp ""
Comment1 ""
Comment2 ""
Comment3 ""
Comment4 ""
$EndDescr
$Comp
L 3Phase-rescue:Buzzer-3Phase-rescue BZ2
U 1 1 628A53C3
P 3000 1825
F 0 "BZ2" V 2875 1750 50  0000 L CNN
F 1 "QMB-09B-05" H 3150 1775 50  0001 L CNN
F 2 "Footprints:MLT-5030" V 2975 1925 50  0001 C CNN
F 3 "" V 2975 1925 50  0001 C CNN
	1    3000 1825
	-1   0    0    -1  
$EndComp
Text GLabel 1050 2025 2    50   Input ~ 0
Vin
Text GLabel 6525 2325 2    50   Input ~ 0
Vbat
Text GLabel 1050 2125 2    50   Input ~ 0
EN
Text GLabel 1050 2425 2    50   Input ~ 0
MOSI
Text GLabel 1050 2525 2    50   Input ~ 0
MCLK
Text GLabel 1025 1225 2    50   Input ~ 0
Vbat
Text GLabel 1050 1825 2    50   Input ~ 0
5V
$Comp
L power:GND #PWR0104
U 1 1 6092AD6E
P 1050 1625
F 0 "#PWR0104" H 1050 1375 50  0001 C CNN
F 1 "GND" H 1055 1452 50  0000 C CNN
F 2 "" H 1050 1625 50  0001 C CNN
F 3 "" H 1050 1625 50  0001 C CNN
	1    1050 1625
	0    -1   -1   0   
$EndComp
Text GLabel 1025 1325 2    50   Input ~ 0
BTN
Text GLabel 1050 2325 2    50   Input ~ 0
BEEP
Wire Wire Line
	1000 2025 1025 2025
Wire Wire Line
	1050 2325 1000 2325
Wire Wire Line
	1000 2525 1050 2525
Wire Wire Line
	1000 2625 1050 2625
$Comp
L Connector:Conn_01x12_Female J1
U 1 1 608DA3B1
P 800 3625
F 0 "J1" H 828 3601 50  0000 L CNN
F 1 "Conn_01x12_Female" H 828 3510 50  0001 L CNN
F 2 "Footprints:LCD_52.3x40.2" H 800 3625 50  0001 C CNN
F 3 "" H 800 3625 50  0001 C CNN
	1    800  3625
	-1   0    0    1   
$EndComp
Text GLabel 6875 1350 1    50   Input ~ 0
EN
$Comp
L 3Phase-rescue:SW_Push-3Phase-rescue SW1
U 1 1 5FE4F8B5
P 2675 1825
F 0 "SW1" V 2766 1777 50  0000 R CNN
F 1 "SW_Push-3Phase-rescue" V 2675 1777 50  0001 R CNN
F 2 "Footprints:SW_Push_4.5x4.5mm_H8mm" V 2584 1777 50  0001 R CNN
F 3 "" H 2675 2025 50  0000 C CNN
	1    2675 1825
	0    -1   1    0   
$EndComp
$Comp
L 3Phase-rescue:C_Small-3Phase-rescue C8
U 1 1 60DFD8CD
P 2675 2550
F 0 "C8" H 2685 2620 50  0000 L CNN
F 1 "100nF 25v" H 2685 2470 50  0001 L CNN
F 2 "Footprints:C_0603_1608Metric" H 2675 2550 50  0001 C CNN
F 3 "" H 2675 2550 50  0001 C CNN
	1    2675 2550
	-1   0    0    -1  
$EndComp
$Comp
L 3Phase-rescue:R-3Phase-rescue R1
U 1 1 5FE634D2
P 2675 2200
F 0 "R1" V 2755 2200 50  0000 C CNN
F 1 "100k" H 2675 2200 50  0001 C CNN
F 2 "Footprints:R_0603_1608Metric" V 2605 2200 50  0001 C CNN
F 3 "" H 2675 2200 50  0001 C CNN
	1    2675 2200
	1    0    0    1   
$EndComp
Text GLabel 2575 2375 0    50   Input ~ 0
BTN
Wire Wire Line
	2675 2450 2675 2375
Wire Wire Line
	2675 2050 2675 2025
Wire Wire Line
	2900 2375 2675 2375
Connection ~ 2675 2375
Wire Wire Line
	2675 2375 2675 2350
Text GLabel 3425 2225 2    50   Input ~ 0
BEEP
Wire Wire Line
	3400 2225 3425 2225
Wire Wire Line
	3100 1925 3100 2025
Wire Wire Line
	3425 1400 3100 1400
Wire Wire Line
	3100 1400 3100 1725
$Comp
L 3Phase-rescue:C_Small-3Phase-rescue C10
U 1 1 6097B2D2
P 1200 3325
F 0 "C10" H 1210 3395 50  0000 L CNN
F 1 "100nF 25v" H 1210 3245 50  0001 L CNN
F 2 "Footprints:C_0603_1608Metric" H 1200 3325 50  0001 C CNN
F 3 "" H 1200 3325 50  0001 C CNN
	1    1200 3325
	0    -1   -1   0   
$EndComp
$Comp
L 3Phase-rescue:C_Small-3Phase-rescue C11
U 1 1 6097C461
P 1200 3525
F 0 "C11" H 1210 3595 50  0000 L CNN
F 1 "100nF 25v" H 1210 3445 50  0001 L CNN
F 2 "Footprints:C_0603_1608Metric" H 1200 3525 50  0001 C CNN
F 3 "" H 1200 3525 50  0001 C CNN
	1    1200 3525
	0    -1   -1   0   
$EndComp
Wire Wire Line
	3100 2725 2900 2725
Wire Wire Line
	3100 2425 3100 2725
Wire Wire Line
	2675 2650 2675 2725
Wire Wire Line
	2675 2725 2900 2725
$Comp
L Components:MP2637 U7
U 1 1 60AE18C0
P 5300 1500
F 0 "U7" H 5487 2215 50  0000 C CNN
F 1 "MP2637" H 5487 2124 50  0000 C CNN
F 2 "Footprints:QFN-24_4x4mm_P0.5mm" H 5300 1500 50  0001 C CNN
F 3 "" H 5300 1500 50  0001 C CNN
	1    5300 1500
	1    0    0    -1  
$EndComp
Wire Wire Line
	4750 2725 4875 2725
$Comp
L 3Phase-rescue:C_Small-3Phase-rescue C22
U 1 1 60B086C5
P 4375 2500
F 0 "C22" V 4325 2575 50  0000 L CNN
F 1 "100nF 25v" H 4385 2420 50  0001 L CNN
F 2 "Footprints:C_0603_1608Metric" H 4375 2500 50  0001 C CNN
F 3 "" H 4375 2500 50  0001 C CNN
	1    4375 2500
	-1   0    0    1   
$EndComp
Wire Wire Line
	4900 1925 4375 1925
Wire Wire Line
	4375 1925 4375 2400
Wire Wire Line
	4375 2600 4375 2725
Wire Wire Line
	4375 2725 4500 2725
Connection ~ 4750 2725
$Comp
L 3Phase-rescue:R-3Phase-rescue R21
U 1 1 60B25E51
P 4050 2500
F 0 "R21" V 4100 2675 50  0000 C CNN
F 1 "100k" H 4050 2500 50  0001 C CNN
F 2 "Footprints:R_0603_1608Metric" V 3980 2500 50  0001 C CNN
F 3 "" H 4050 2500 50  0001 C CNN
	1    4050 2500
	1    0    0    1   
$EndComp
$Comp
L 3Phase-rescue:R-3Phase-rescue R20
U 1 1 60B26586
P 4050 2150
F 0 "R20" V 4100 2325 50  0000 C CNN
F 1 "100k" H 4050 2150 50  0001 C CNN
F 2 "Footprints:R_0603_1608Metric" V 3980 2150 50  0001 C CNN
F 3 "" H 4050 2150 50  0001 C CNN
	1    4050 2150
	1    0    0    1   
$EndComp
$Comp
L 3Phase-rescue:R-3Phase-rescue R22
U 1 1 60B26D36
P 4225 2150
F 0 "R22" V 4275 1975 50  0000 C CNN
F 1 "100k" H 4225 2150 50  0001 C CNN
F 2 "Footprints:R_0603_1608Metric" V 4155 2150 50  0001 C CNN
F 3 "" H 4225 2150 50  0001 C CNN
	1    4225 2150
	1    0    0    1   
$EndComp
$Comp
L 3Phase-rescue:R-3Phase-rescue R23
U 1 1 60B27486
P 4225 2500
F 0 "R23" V 4275 2675 50  0000 C CNN
F 1 "100k" H 4225 2500 50  0001 C CNN
F 2 "Footprints:R_0603_1608Metric" V 4155 2500 50  0001 C CNN
F 3 "" H 4225 2500 50  0001 C CNN
	1    4225 2500
	1    0    0    1   
$EndComp
Wire Wire Line
	4300 2325 4225 2325
Wire Wire Line
	4225 2325 4225 2300
Wire Wire Line
	4225 2350 4225 2325
Connection ~ 4225 2325
Wire Wire Line
	4050 2300 4050 2325
Wire Wire Line
	4125 2325 4050 2325
Connection ~ 4050 2325
Wire Wire Line
	4050 2325 4050 2350
$Comp
L 3Phase-rescue:R-3Phase-rescue R28
U 1 1 60B8BC80
P 4875 2500
F 0 "R28" V 4925 2675 50  0000 C CNN
F 1 "100k" H 4875 2500 50  0001 C CNN
F 2 "Footprints:R_0603_1608Metric" V 4805 2500 50  0001 C CNN
F 3 "" H 4875 2500 50  0001 C CNN
	1    4875 2500
	1    0    0    1   
$EndComp
Wire Wire Line
	4900 2325 4875 2325
Wire Wire Line
	4875 2325 4875 2350
Wire Wire Line
	4875 2650 4875 2725
Connection ~ 4875 2725
Wire Wire Line
	4875 2725 5325 2725
Wire Wire Line
	5325 2650 5325 2725
Connection ~ 5325 2725
Wire Wire Line
	5325 2725 5425 2725
Wire Wire Line
	5425 2650 5425 2725
Connection ~ 5425 2725
Wire Wire Line
	5425 2725 5475 2725
Wire Wire Line
	5525 2650 5525 2725
Connection ~ 5525 2725
Wire Wire Line
	5525 2725 5625 2725
Wire Wire Line
	5625 2650 5625 2725
Connection ~ 5625 2725
Wire Wire Line
	5625 2725 6075 2725
$Comp
L 3Phase-rescue:R-3Phase-rescue R27
U 1 1 60AEA5B0
P 4750 2500
F 0 "R27" V 4800 2675 50  0000 C CNN
F 1 "100k" H 4750 2500 50  0001 C CNN
F 2 "Footprints:R_0603_1608Metric" V 4680 2500 50  0001 C CNN
F 3 "" H 4750 2500 50  0001 C CNN
	1    4750 2500
	1    0    0    1   
$EndComp
Wire Wire Line
	4750 2650 4750 2725
Wire Wire Line
	4750 2225 4750 2350
Wire Wire Line
	4900 2225 4750 2225
$Comp
L 3Phase-rescue:R-3Phase-rescue R24
U 1 1 60C665B5
P 4625 2500
F 0 "R24" V 4675 2675 50  0000 C CNN
F 1 "100k" H 4625 2500 50  0001 C CNN
F 2 "Footprints:R_0603_1608Metric" V 4555 2500 50  0001 C CNN
F 3 "" H 4625 2500 50  0001 C CNN
	1    4625 2500
	1    0    0    1   
$EndComp
Wire Wire Line
	4900 2125 4625 2125
Wire Wire Line
	4625 2125 4625 2350
Wire Wire Line
	4625 2650 4625 2725
Connection ~ 4625 2725
Wire Wire Line
	4625 2725 4750 2725
$Comp
L 3Phase-rescue:C_Small-3Phase-rescue C23
U 1 1 60C99C12
P 4500 2150
F 0 "C23" V 4450 2250 50  0000 L CNN
F 1 "100nF 25v" H 4510 2070 50  0001 L CNN
F 2 "Footprints:C_0603_1608Metric" H 4500 2150 50  0001 C CNN
F 3 "" H 4500 2150 50  0001 C CNN
	1    4500 2150
	-1   0    0    1   
$EndComp
Wire Wire Line
	4900 2025 4500 2025
Wire Wire Line
	4500 2025 4500 2050
Wire Wire Line
	4500 2250 4500 2725
Connection ~ 4500 2725
Wire Wire Line
	4375 1825 4375 1925
Connection ~ 4375 1925
Wire Wire Line
	4050 2650 4050 2725
Wire Wire Line
	4050 2725 4225 2725
Wire Wire Line
	4225 2650 4225 2725
Connection ~ 4225 2725
Wire Wire Line
	4225 2000 4225 1325
Connection ~ 4050 2725
Wire Wire Line
	4375 1725 4375 1825
Connection ~ 4375 1825
$Comp
L 3Phase-rescue:Thermistor_NTC-3Phase-rescue TH1
U 1 1 61349593
P 7225 2500
F 0 "TH1" V 7325 2275 50  0000 L CNN
F 1 "Thermistor_NTC-3Phase-rescue" H 7322 2455 50  0001 L CNN
F 2 "Footprints:R_0603_1608Metric" H 7225 2550 50  0001 C CNN
F 3 "" H 7225 2550 50  0001 C CNN
	1    7225 2500
	1    0    0    -1  
$EndComp
$Comp
L 3Phase-rescue:R-3Phase-rescue R32
U 1 1 613636EA
P 7225 2150
F 0 "R32" V 7275 2000 50  0000 C CNN
F 1 "100k" H 7225 2150 50  0001 C CNN
F 2 "Footprints:R_0603_1608Metric" V 7155 2150 50  0001 C CNN
F 3 "" H 7225 2150 50  0001 C CNN
	1    7225 2150
	1    0    0    1   
$EndComp
Connection ~ 4375 2725
Wire Wire Line
	4300 1525 4300 2325
Wire Wire Line
	4125 1425 4900 1425
Wire Wire Line
	4125 1425 4125 2325
Wire Wire Line
	4225 1325 4050 1325
Connection ~ 4050 1325
Wire Wire Line
	4050 2000 4050 1325
Connection ~ 4225 1325
$Comp
L Device:Battery_Cell BT2
U 1 1 61757E1B
P 6475 2575
F 0 "BT2" H 6475 2550 50  0000 R CNN
F 1 "Battery clips" H 6331 2693 50  0001 R CNN
F 2 "Footprints:18500_Clips" V 6475 2635 50  0001 C CNN
F 3 "" V 6475 2635 50  0001 C CNN
	1    6475 2575
	-1   0    0    -1  
$EndComp
$Comp
L 3Phase-rescue:C_Small-3Phase-rescue C24
U 1 1 617D4899
P 6075 2525
F 0 "C24" V 6025 2625 50  0000 L CNN
F 1 "100nF 25v" H 6085 2445 50  0001 L CNN
F 2 "Footprints:C_0603_1608Metric" H 6075 2525 50  0001 C CNN
F 3 "" H 6075 2525 50  0001 C CNN
	1    6075 2525
	-1   0    0    1   
$EndComp
$Comp
L 3Phase-rescue:R-3Phase-rescue R29
U 1 1 617D5175
P 6300 2225
F 0 "R29" V 6350 2400 50  0000 C CNN
F 1 "100k" H 6300 2225 50  0001 C CNN
F 2 "Footprints:R_1206_3216Metric" V 6230 2225 50  0001 C CNN
F 3 "" H 6300 2225 50  0001 C CNN
	1    6300 2225
	0    -1   1    0   
$EndComp
Wire Wire Line
	6050 2325 6075 2325
Wire Wire Line
	6075 2325 6075 2425
Wire Wire Line
	6075 2325 6275 2325
Wire Wire Line
	6475 2325 6475 2375
Connection ~ 6075 2325
Wire Wire Line
	6275 2375 6275 2325
Connection ~ 6275 2325
Wire Wire Line
	6275 2325 6475 2325
Wire Wire Line
	6075 2625 6075 2725
Connection ~ 6075 2725
Wire Wire Line
	6075 2725 6275 2725
Wire Wire Line
	6275 2675 6275 2725
Connection ~ 6275 2725
Wire Wire Line
	6275 2725 6475 2725
Wire Wire Line
	6475 2675 6475 2725
Wire Wire Line
	6450 2225 6475 2225
Wire Wire Line
	6475 2225 6475 2325
Connection ~ 6475 2325
Wire Wire Line
	6150 2225 6100 2225
$Comp
L Device:L_Small L3
U 1 1 6190555F
P 6275 2025
F 0 "L3" V 6225 1975 50  0000 L CNN
F 1 "L_Small" H 6323 1980 50  0001 L CNN
F 2 "Footprints:MWSA0503S" H 6275 2025 50  0001 C CNN
F 3 "" H 6275 2025 50  0001 C CNN
	1    6275 2025
	0    1    -1   0   
$EndComp
Wire Wire Line
	6050 2025 6175 2025
Wire Wire Line
	6100 2225 6100 2125
Wire Wire Line
	6100 2125 6475 2125
Wire Wire Line
	6475 2125 6475 2025
Wire Wire Line
	6475 2025 6375 2025
Connection ~ 6100 2225
Wire Wire Line
	6100 2225 6050 2225
$Comp
L 3Phase-rescue:R-3Phase-rescue R31
U 1 1 6193955D
P 7025 2500
F 0 "R31" V 7075 2675 50  0000 C CNN
F 1 "100k" H 7025 2500 50  0001 C CNN
F 2 "Footprints:R_0603_1608Metric" V 6955 2500 50  0001 C CNN
F 3 "" H 7025 2500 50  0001 C CNN
	1    7025 2500
	1    0    0    1   
$EndComp
$Comp
L 3Phase-rescue:R-3Phase-rescue R30
U 1 1 61939C60
P 7025 2150
F 0 "R30" V 7075 2325 50  0000 C CNN
F 1 "100k" H 7025 2150 50  0001 C CNN
F 2 "Footprints:R_0603_1608Metric" V 6955 2150 50  0001 C CNN
F 3 "" H 7025 2150 50  0001 C CNN
	1    7025 2150
	1    0    0    1   
$EndComp
Wire Wire Line
	7025 2300 7025 2325
Wire Wire Line
	7025 2325 6950 2325
Wire Wire Line
	6950 2325 6950 1925
Wire Wire Line
	6950 1925 6050 1925
Connection ~ 7025 2325
Wire Wire Line
	7025 2325 7025 2350
$Comp
L 3Phase-rescue:C_Small-3Phase-rescue C25
U 1 1 619F1E28
P 7375 2400
F 0 "C25" V 7325 2500 50  0000 L CNN
F 1 "100nF 25v" H 7385 2320 50  0001 L CNN
F 2 "Footprints:C_0805_2012Metric" H 7375 2400 50  0001 C CNN
F 3 "" H 7375 2400 50  0001 C CNN
	1    7375 2400
	-1   0    0    1   
$EndComp
$Comp
L 3Phase-rescue:C_Small-3Phase-rescue C26
U 1 1 619F2314
P 7500 2300
F 0 "C26" V 7450 2400 50  0000 L CNN
F 1 "100nF 25v" H 7510 2220 50  0001 L CNN
F 2 "Footprints:C_0805_2012Metric" H 7500 2300 50  0001 C CNN
F 3 "" H 7500 2300 50  0001 C CNN
	1    7500 2300
	-1   0    0    1   
$EndComp
Wire Wire Line
	6475 2725 6875 2725
Wire Wire Line
	7375 2500 7375 2725
Connection ~ 7375 2725
Wire Wire Line
	7375 2725 7500 2725
Wire Wire Line
	7025 2725 7025 2650
Wire Wire Line
	7500 2400 7500 2725
Wire Wire Line
	6050 1725 7025 1725
Wire Wire Line
	7500 2200 7500 1725
Connection ~ 7500 1725
Wire Wire Line
	7375 2300 7375 1725
Connection ~ 7375 1725
Wire Wire Line
	7375 1725 7500 1725
Wire Wire Line
	4225 2725 4375 2725
Wire Wire Line
	4900 1325 4225 1325
Wire Wire Line
	4900 1525 4300 1525
Wire Wire Line
	4500 2725 4625 2725
Wire Wire Line
	6050 1825 7150 1825
Wire Wire Line
	7150 1825 7150 2325
Wire Wire Line
	7150 2325 7225 2325
Wire Wire Line
	7225 2325 7225 2300
Wire Wire Line
	7225 2350 7225 2325
Connection ~ 7225 2325
Wire Wire Line
	7025 2725 7225 2725
Connection ~ 7025 2725
Wire Wire Line
	7225 2650 7225 2725
Connection ~ 7225 2725
Wire Wire Line
	7225 2725 7375 2725
Wire Wire Line
	7025 2000 7025 1725
Connection ~ 7025 1725
Wire Wire Line
	7025 1725 7225 1725
Wire Wire Line
	7225 2000 7225 1725
Connection ~ 7225 1725
Wire Wire Line
	7225 1725 7375 1725
Wire Wire Line
	6525 2325 6475 2325
Wire Wire Line
	6875 1350 6875 1425
$Comp
L 3Phase-rescue:C_Small-3Phase-rescue C1
U 1 1 61FC18F8
P 3950 1950
F 0 "C1" V 3900 2050 50  0000 L CNN
F 1 "100nF 25v" H 3960 1870 50  0001 L CNN
F 2 "Footprints:C_0805_2012Metric" H 3950 1950 50  0001 C CNN
F 3 "" H 3950 1950 50  0001 C CNN
	1    3950 1950
	-1   0    0    1   
$EndComp
Wire Wire Line
	3950 1850 3950 1325
Wire Wire Line
	3950 2050 3950 2725
Text GLabel 4225 1225 1    50   Input ~ 0
Vin
Text GLabel 7500 1475 1    50   Input ~ 0
5V
Wire Wire Line
	4225 1225 4225 1325
Wire Wire Line
	7500 1475 7500 1725
$Comp
L power:GND #PWR0101
U 1 1 6203FCC3
P 5475 2750
F 0 "#PWR0101" H 5475 2500 50  0001 C CNN
F 1 "GND" H 5480 2577 50  0000 C CNN
F 2 "" H 5475 2750 50  0001 C CNN
F 3 "" H 5475 2750 50  0001 C CNN
	1    5475 2750
	1    0    0    -1  
$EndComp
Wire Wire Line
	5475 2750 5475 2725
Connection ~ 5475 2725
Wire Wire Line
	5475 2725 5525 2725
$Comp
L 3Phase-rescue:C_Small-3Phase-rescue C2
U 1 1 620655A1
P 3825 1825
F 0 "C2" V 3775 1925 50  0000 L CNN
F 1 "100nF 25v" H 3835 1745 50  0001 L CNN
F 2 "Footprints:C_0805_2012Metric" H 3825 1825 50  0001 C CNN
F 3 "" H 3825 1825 50  0001 C CNN
	1    3825 1825
	-1   0    0    1   
$EndComp
Wire Wire Line
	3825 1925 3825 2725
Wire Wire Line
	3825 2725 3950 2725
Connection ~ 3950 2725
Wire Wire Line
	3825 1725 3825 1325
Wire Wire Line
	3825 1325 3950 1325
Connection ~ 3950 1325
Wire Wire Line
	1000 1425 1025 1425
Wire Wire Line
	1000 1525 1025 1525
Wire Wire Line
	1000 1225 1025 1225
$Comp
L Device:Battery_Cell BT1
U 1 1 60B6B247
P 6275 2575
F 0 "BT1" H 6275 2550 50  0000 R CNN
F 1 "Battery clips" H 6131 2693 50  0001 R CNN
F 2 "Footprints:18500_Clips" V 6275 2635 50  0001 C CNN
F 3 "" V 6275 2635 50  0001 C CNN
	1    6275 2575
	-1   0    0    -1  
$EndComp
Text GLabel 1050 2225 2    50   Input ~ 0
LCD_BL
Wire Wire Line
	3950 1325 4050 1325
Wire Wire Line
	3950 2725 4050 2725
$Comp
L power:GND #PWR0102
U 1 1 60BEC7DD
P 2900 2725
F 0 "#PWR0102" H 2900 2475 50  0001 C CNN
F 1 "GND" H 2905 2552 50  0000 C CNN
F 2 "" H 2900 2725 50  0001 C CNN
F 3 "" H 2900 2725 50  0001 C CNN
	1    2900 2725
	1    0    0    -1  
$EndComp
Text GLabel 2600 1400 0    50   Input ~ 0
Vbat
$Comp
L 3Phase-rescue:D_Small_ALT-3Phase-rescue D1
U 1 1 60DE4CBD
P 3225 1825
F 0 "D1" V 3225 1893 50  0000 L CNN
F 1 "D_Small_ALT-3Phase-rescue" V 3225 1893 50  0001 L CNN
F 2 "Footprints:D_SOD-323" V 3316 1893 50  0001 L CNN
F 3 "" V 3225 1825 50  0000 C CNN
	1    3225 1825
	0    1    1    0   
$EndComp
Wire Wire Line
	3225 1725 3100 1725
Connection ~ 3100 1725
Wire Wire Line
	3225 1925 3100 1925
Connection ~ 3100 1925
Connection ~ 2900 2725
$Comp
L 3Phase-rescue:R-3Phase-rescue R2
U 1 1 60E1BA2C
P 2900 2550
F 0 "R2" V 2980 2550 50  0000 C CNN
F 1 "100k" H 2900 2550 50  0001 C CNN
F 2 "Footprints:R_0603_1608Metric" V 2830 2550 50  0001 C CNN
F 3 "" H 2900 2550 50  0001 C CNN
	1    2900 2550
	1    0    0    -1  
$EndComp
Wire Wire Line
	2900 2375 2900 2400
Wire Wire Line
	2900 2700 2900 2725
Wire Wire Line
	2575 2375 2675 2375
$Comp
L Connector:Conn_01x16_Male J2
U 1 1 60ADD37E
P 800 1925
F 0 "J2" H 700 1875 50  0000 C CNN
F 1 "Conn_01x06_Male" H 908 2215 50  0001 C CNN
F 2 "Footprints:PinHeader_1x16_P2.54mm_Vertical" H 800 1925 50  0001 C CNN
F 3 "" H 800 1925 50  0001 C CNN
	1    800  1925
	1    0    0    -1  
$EndComp
Wire Wire Line
	1025 1325 1000 1325
Wire Wire Line
	1000 2425 1050 2425
Wire Wire Line
	1050 2725 1000 2725
Wire Wire Line
	4375 1725 4900 1725
Wire Wire Line
	4375 1825 4900 1825
$Comp
L 3Phase-rescue:R-3Phase-rescue R17
U 1 1 60B233AB
P 6875 2350
F 0 "R17" V 6955 2350 50  0000 C CNN
F 1 "100k" H 6875 2350 50  0001 C CNN
F 2 "Footprints:R_0603_1608Metric" V 6805 2350 50  0001 C CNN
F 3 "" H 6875 2350 50  0001 C CNN
	1    6875 2350
	-1   0    0    -1  
$EndComp
Connection ~ 6475 2725
Wire Wire Line
	6875 2500 6875 2725
Connection ~ 6875 2725
Wire Wire Line
	6875 2725 7025 2725
Wire Wire Line
	6050 1425 6875 1425
Connection ~ 6875 1425
Wire Wire Line
	6875 1425 6875 2200
$Comp
L power:GND #PWR0103
U 1 1 610C353D
P 1350 3225
F 0 "#PWR0103" H 1350 2975 50  0001 C CNN
F 1 "GND" H 1355 3052 50  0000 C CNN
F 2 "" H 1350 3225 50  0001 C CNN
F 3 "" H 1350 3225 50  0001 C CNN
	1    1350 3225
	0    -1   -1   0   
$EndComp
Wire Wire Line
	1000 3225 1325 3225
Wire Wire Line
	1300 3325 1325 3325
Wire Wire Line
	1325 3325 1325 3225
Connection ~ 1325 3225
Wire Wire Line
	1325 3225 1350 3225
Wire Wire Line
	1100 3325 1000 3325
Wire Wire Line
	1000 3425 1325 3425
Wire Wire Line
	1325 3425 1325 3525
Wire Wire Line
	1325 3525 1300 3525
Wire Wire Line
	1100 3525 1000 3525
Text GLabel 1275 3625 2    50   Input ~ 0
3.3Vd
Wire Wire Line
	1275 3625 1125 3625
Text GLabel 1275 3725 2    50   Input ~ 0
MOSI
Text GLabel 1275 3825 2    50   Input ~ 0
MCLK
Wire Wire Line
	1275 3725 1000 3725
Wire Wire Line
	1000 3825 1275 3825
Wire Wire Line
	1000 4025 1125 4025
Wire Wire Line
	1125 4025 1125 3625
Connection ~ 1125 3625
Wire Wire Line
	1125 3625 1000 3625
Wire Wire Line
	1000 1825 1025 1825
Wire Wire Line
	1025 1925 1000 1925
Text GLabel 1025 1425 2    50   Input ~ 0
3.3Vd
Wire Wire Line
	2675 1400 2675 1625
Wire Wire Line
	2600 1400 2675 1400
Wire Wire Line
	1025 1925 1025 2025
Connection ~ 1025 2025
Wire Wire Line
	1025 2025 1050 2025
Wire Wire Line
	1000 1725 1025 1725
Wire Wire Line
	1025 1725 1025 1825
Wire Wire Line
	1025 1825 1050 1825
Connection ~ 1025 1825
Wire Wire Line
	1000 1625 1025 1625
Wire Wire Line
	1025 1525 1025 1625
Connection ~ 1025 1625
Wire Wire Line
	1025 1625 1050 1625
Text GLabel 3425 1400 2    50   Input ~ 0
3.3Vd
Wire Wire Line
	1000 2125 1050 2125
$Comp
L Device:Q_DUAL_NMOS_S1G1D2S2G2D1 Q1
U 1 1 6121BB6D
P 3200 2225
F 0 "Q1" H 3405 2225 50  0000 L CNN
F 1 "SSM6N7002KFU" H 3404 2180 50  0001 L CNN
F 2 "Footprints:SOT-363_SC-70-6" H 3400 2225 50  0001 C CNN
F 3 "" H 3400 2225 50  0001 C CNN
	1    3200 2225
	-1   0    0    1   
$EndComp
$Comp
L Device:Q_DUAL_NMOS_S1G1D2S2G2D1 Q1
U 2 1 6121BFFB
P 2025 3425
F 0 "Q1" H 2230 3425 50  0000 L CNN
F 1 "SSM6N7002KFU" H 2230 3380 50  0001 L CNN
F 2 "Footprints:SOT-363_SC-70-6" H 2225 3425 50  0001 C CNN
F 3 "" H 2225 3425 50  0001 C CNN
	2    2025 3425
	-1   0    0    1   
$EndComp
Text GLabel 1275 3025 2    50   Input ~ 0
3.3Vd
Wire Wire Line
	1000 3125 1925 3125
Wire Wire Line
	1925 3125 1925 3225
Wire Wire Line
	1275 3025 1000 3025
$Comp
L power:GND #PWR0105
U 1 1 61287772
P 1925 3675
F 0 "#PWR0105" H 1925 3425 50  0001 C CNN
F 1 "GND" H 1930 3502 50  0000 C CNN
F 2 "" H 1925 3675 50  0001 C CNN
F 3 "" H 1925 3675 50  0001 C CNN
	1    1925 3675
	1    0    0    -1  
$EndComp
Wire Wire Line
	1925 3675 1925 3625
Wire Wire Line
	1000 2225 1050 2225
Text GLabel 2250 3425 2    50   Input ~ 0
LCD_BL
Wire Wire Line
	2250 3425 2225 3425
Text GLabel 1275 3925 2    50   Input ~ 0
LCD_A0
Text GLabel 1275 4125 2    50   Input ~ 0
LCD_SEL
Text GLabel 1050 2725 2    50   Input ~ 0
LCD_SEL
Text GLabel 1050 2625 2    50   Input ~ 0
LCD_A0
Wire Wire Line
	1275 3925 1000 3925
Wire Wire Line
	1000 4125 1275 4125
$EndSCHEMATC
