(module CD75_7.8x7.0 (layer F.Cu) (tedit 5D9DD2DE)
  (descr "Inductor, CD32 3.5x3.0")
  (tags "inductor Wuerth smd")
  (attr smd)
  (fp_text reference L2 (at 0 -4.2) (layer F.SilkS)
    (effects (font (size 1 1) (thickness 0.15)))
  )
  (fp_text value "1mH 300mA" (at 0 3.35) (layer F.Fab)
    (effects (font (size 1 1) (thickness 0.15)))
  )
  (fp_text user %R (at 0 0) (layer F.Fab)
    (effects (font (size 0.8 0.8) (thickness 0.15)))
  )
  (fp_line (start -4 -3.5) (end -4 3.5) (layer F.Fab) (width 0.1))
  (fp_line (start -4 3.5) (end 4 3.5) (layer F.Fab) (width 0.1))
  (fp_line (start 4 3.5) (end 4 -3.5) (layer F.Fab) (width 0.1))
  (fp_line (start 4 -3.5) (end -4 -3.5) (layer F.Fab) (width 0.1))
  (fp_line (start -1 -3.6) (end 1 -3.6) (layer F.SilkS) (width 0.12))
  (fp_line (start -1 3.6) (end 1 3.6) (layer F.SilkS) (width 0.12))
  (pad 1 smd roundrect (at -2.8 0) (size 3 7) (layers F.Cu F.Paste F.Mask) (roundrect_rratio 0.25))
  (pad 2 smd roundrect (at 2.8 0) (size 3 7) (layers F.Cu F.Paste F.Mask) (roundrect_rratio 0.25))
  (model ${KISYS3DMOD}/Inductor_SMD.3dshapes/L_Wuerth_MAPI-4020.wrl
    (at (xyz 0 0 0))
    (scale (xyz 1 1 1))
    (rotate (xyz 0 0 0))
  )
)
