(module SOT-23-5 (layer F.Cu) (tedit 60E5DAD4)
  (descr "5-pin SOT23 package")
  (tags SOT-23-5)
  (attr smd)
  (fp_text reference U9 (at 0 -2.9) (layer F.SilkS) hide
    (effects (font (size 1 1) (thickness 0.15)))
  )
  (fp_text value MCP1811 (at 0 2.9) (layer F.Fab)
    (effects (font (size 1 1) (thickness 0.15)))
  )
  (fp_text user %R (at 0 0 -90) (layer F.Fab)
    (effects (font (size 0.5 0.5) (thickness 0.075)))
  )
  (fp_line (start -0.9 1.61) (end 0.9 1.61) (layer F.SilkS) (width 0.12))
  (fp_line (start 0.9 -1.61) (end -0.9 -1.61) (layer F.SilkS) (width 0.12))
  (fp_circle (center -0.2 -1) (end -0.1 -1.2) (layer F.SilkS) (width 0.1))
  (pad 1 smd roundrect (at -1.1 -0.95) (size 1.06 0.65) (layers F.Cu F.Paste F.Mask) (roundrect_rratio 0.25))
  (pad 2 smd roundrect (at -1.1 0) (size 1.06 0.65) (layers F.Cu F.Paste F.Mask) (roundrect_rratio 0.25))
  (pad 3 smd roundrect (at -1.1 0.95) (size 1.06 0.65) (layers F.Cu F.Paste F.Mask) (roundrect_rratio 0.25))
  (pad 4 smd roundrect (at 1.1 0.95) (size 1.06 0.65) (layers F.Cu F.Paste F.Mask) (roundrect_rratio 0.25))
  (pad 5 smd roundrect (at 1.1 -0.95) (size 1.06 0.65) (layers F.Cu F.Paste F.Mask) (roundrect_rratio 0.25))
  (model ${KISYS3DMOD}/Package_TO_SOT_SMD.3dshapes/SOT-23-5.wrl
    (at (xyz 0 0 0))
    (scale (xyz 1 1 1))
    (rotate (xyz 0 0 0))
  )
)
